  0
SECTION
  2
HEADER
  9
$ACADVER
  1
AC1014
  9
$HANDSEED
  5
FFFF
  9
$MEASUREMENT
 70
     1
  0
ENDSEC
  0
SECTION
  2
TABLES
  0
TABLE
  2
VPORT
  5
8
330
0
100
AcDbSymbolTable
 70
     4
  0
VPORT
  5
2E
330
8
100
AcDbSymbolTableRecord
100
AcDbViewportTableRecord
  2
*ACTIVE
 70
     0
 10
0.0
 20
0.0
 11
1.0
 21
1.0
 12
210.0
 22
148.5
 13
0.0
 23
0.0
 14
10.0
 24
10.0
 15
10.0
 25
10.0
 16
0.0
 26
0.0
 36
1.0
 17
0.0
 27
0.0
 37
0.0
 40
341.0
 41
1.24
 42
50.0
 43
0.0
 44
0.0
 50
0.0
 51
0.0
 71
     0
 72
   100
 73
     1
 74
     3
 75
     0
 76
     0
 77
     0
 78
     0
  0
ENDTAB
  0
TABLE
  2
LTYPE
  5
5
330
0
100
AcDbSymbolTable
 70
     1
  0
LTYPE
  5
14
330
5
100
AcDbSymbolTableRecord
100
AcDbLinetypeTableRecord
  2
BYBLOCK
 70
     0
  3

 72
    65
 73
     0
 40
0.0
  0
LTYPE
  5
15
330
5
100
AcDbSymbolTableRecord
100
AcDbLinetypeTableRecord
  2
BYLAYER
 70
     0
  3

 72
    65
 73
     0
 40
0.0
  0
LTYPE
  5
16
330
5
100
AcDbSymbolTableRecord
100
AcDbLinetypeTableRecord
  2
CONTINUOUS
 70
     0
  3
Solid line
 72
    65
 73
     0
 40
0.0
  0
ENDTAB
  0
TABLE
  2
LAYER
  5
2
100
AcDbSymbolTable
 70
1
  0
LAYER
  5
50
100
AcDbSymbolTableRecord
100
AcDbLayerTableRecord
  2
0
 70
0
  6
CONTINUOUS
  0
ENDTAB
  0
TABLE
  2
STYLE
  5
3
330
0
100
AcDbSymbolTable
 70
     1
  0
STYLE
  5
11
330
3
100
AcDbSymbolTableRecord
100
AcDbTextStyleTableRecord
  2
STANDARD
 70
     0
 40
0.0
 41
1.0
 50
0.0
 71
     0
 42
2.5
  3
txt
  4

  0
ENDTAB
  0
TABLE
  2
VIEW
  5
6
330
0
100
AcDbSymbolTable
 70
     0
  0
ENDTAB
  0
TABLE
  2
UCS
  5
7
330
0
100
AcDbSymbolTable
 70
     0
  0
ENDTAB
  0
TABLE
  2
APPID
  5
9
330
0
100
AcDbSymbolTable
 70
     2
  0
APPID
  5
12
330
9
100
AcDbSymbolTableRecord
100
AcDbRegAppTableRecord
  2
ACAD
 70
     0
  0
ENDTAB
  0
TABLE
  2
DIMSTYLE
  5
A
330
0
100
AcDbSymbolTable
 70
     1
  0
DIMSTYLE
105
27
330
A
100
AcDbSymbolTableRecord
100
AcDbDimStyleTableRecord
  2
ISO-25
 70
     0
  3

  4

  5

  6

  7

 40
1.0
 41
2.5
 42
0.625
 43
3.75
 44
1.25
 45
0.0
 46
0.0
 47
0.0
 48
0.0
140
2.5
141
2.5
142
0.0
143
0.03937007874016
144
1.0
145
0.0
146
1.0
147
0.625
 71
     0
 72
     0
 73
     0
 74
     0
 75
     0
 76
     0
 77
     1
 78
     8
170
     0
171
     3
172
     1
173
     0
174
     0
175
     0
176
     0
177
     0
178
     0
270
     2
271
     2
272
     2
273
     2
274
     3
340
11
275
     0
280
     0
281
     0
282
     0
283
     0
284
     8
285
     0
286
     0
287
     3
288
     0
  0
ENDTAB
  0
TABLE
  2
BLOCK_RECORD
  5
1
330
0
100
AcDbSymbolTable
 70
     1
  0
BLOCK_RECORD
  5
1F
330
1
100
AcDbSymbolTableRecord
100
AcDbBlockTableRecord
  2
*MODEL_SPACE
  0
BLOCK_RECORD
  5
1B
330
1
100
AcDbSymbolTableRecord
100
AcDbBlockTableRecord
  2
*PAPER_SPACE
  0
ENDTAB
  0
ENDSEC
  0
SECTION
  2
BLOCKS
  0
BLOCK
  5
20
330
1F
100
AcDbEntity
  8
0
100
AcDbBlockBegin
  2
*MODEL_SPACE
 70
     0
 10
0.0
 20
0.0
 30
0.0
  3
*MODEL_SPACE
  1

  0
ENDBLK
  5
21
330
1F
100
AcDbEntity
  8
0
100
AcDbBlockEnd
  0
BLOCK
  5
1C
330
1B
100
AcDbEntity
 67
     1
  8
0
100
AcDbBlockBegin
  2
*PAPER_SPACE
  1

  0
ENDBLK
  5
1D
330
1B
100
AcDbEntity
 67
     1
  8
0
100
AcDbBlockEnd
  0
ENDSEC
  0
SECTION
  2
ENTITIES
  0
LWPOLYLINE
  5
100
100
AcDbEntity
  8
0
 62
1
100
AcDbPolyline
 90
12
 70
1
 10
220.841681
 20
257.241274
 30
0.0
 10
217.841346
 20
257.241274
 30
0.0
 10
217.841346
 20
252.241062
 30
0.0
 10
212.841652
 20
252.241062
 30
0.0
 10
212.841652
 20
249.241245
 30
0.0
 10
217.841346
 20
249.241245
 30
0.0
 10
217.841346
 20
244.241033
 30
0.0
 10
220.841681
 20
244.241033
 30
0.0
 10
220.841681
 20
249.241245
 30
0.0
 10
225.841375
 20
249.241245
 30
0.0
 10
225.841375
 20
252.241062
 30
0.0
 10
220.841681
 20
252.241062
 30
0.0
  0
LWPOLYLINE
  5
101
100
AcDbEntity
  8
0
 62
1
100
AcDbPolyline
 90
12
 70
1
 10
260.841305
 20
252.241062
 30
0.0
 10
260.841305
 20
249.241245
 30
0.0
 10
265.841506
 20
249.241245
 30
0.0
 10
265.841506
 20
244.241033
 30
0.0
 10
268.841326
 20
244.241033
 30
0.0
 10
268.841326
 20
249.241245
 30
0.0
 10
273.841554
 20
249.241245
 30
0.0
 10
273.841554
 20
252.241062
 30
0.0
 10
268.841326
 20
252.241062
 30
0.0
 10
268.841326
 20
257.241274
 30
0.0
 10
265.841506
 20
257.241274
 30
0.0
 10
265.841506
 20
252.241062
 30
0.0
  0
LWPOLYLINE
  5
102
100
AcDbEntity
  8
0
 62
1
100
AcDbPolyline
 90
12
 70
1
 10
321.841204
 20
249.241245
 30
0.0
 10
321.841204
 20
252.241062
 30
0.0
 10
316.841505
 20
252.241062
 30
0.0
 10
316.841505
 20
257.241274
 30
0.0
 10
313.841686
 20
257.241274
 30
0.0
 10
313.841686
 20
252.241062
 30
0.0
 10
308.841484
 20
252.241062
 30
0.0
 10
308.841484
 20
249.241245
 30
0.0
 10
313.841686
 20
249.241245
 30
0.0
 10
313.841686
 20
244.241033
 30
0.0
 10
316.841505
 20
244.241033
 30
0.0
 10
316.841505
 20
249.241245
 30
0.0
  0
LWPOLYLINE
  5
103
100
AcDbEntity
  8
0
 62
1
100
AcDbPolyline
 90
12
 70
1
 10
361.841336
 20
244.241033
 30
0.0
 10
364.841684
 20
244.241033
 30
0.0
 10
364.841684
 20
249.241245
 30
0.0
 10
369.841357
 20
249.241245
 30
0.0
 10
369.841357
 20
252.241062
 30
0.0
 10
364.841684
 20
252.241062
 30
0.0
 10
364.841684
 20
257.241274
 30
0.0
 10
361.841336
 20
257.241274
 30
0.0
 10
361.841336
 20
252.241062
 30
0.0
 10
356.841637
 20
252.241062
 30
0.0
 10
356.841637
 20
249.241245
 30
0.0
 10
361.841336
 20
249.241245
 30
0.0
  0
LWPOLYLINE
  5
104
100
AcDbEntity
  8
0
 62
1
100
AcDbPolyline
 90
12
 70
1
 10
404.841287
 20
252.241062
 30
0.0
 10
404.841287
 20
249.241245
 30
0.0
 10
409.841515
 20
249.241245
 30
0.0
 10
409.841515
 20
244.241033
 30
0.0
 10
412.841334
 20
244.241033
 30
0.0
 10
412.841334
 20
249.241245
 30
0.0
 10
417.841536
 20
249.241245
 30
0.0
 10
417.841536
 20
252.241062
 30
0.0
 10
412.841334
 20
252.241062
 30
0.0
 10
412.841334
 20
257.241274
 30
0.0
 10
409.841515
 20
257.241274
 30
0.0
 10
409.841515
 20
252.241062
 30
0.0
  0
LWPOLYLINE
  5
105
100
AcDbEntity
  8
0
 62
1
100
AcDbPolyline
 90
12
 70
1
 10
225.841375
 20
201.241074
 30
0.0
 10
225.841375
 20
204.240891
 30
0.0
 10
220.841681
 20
204.240891
 30
0.0
 10
220.841681
 20
209.241103
 30
0.0
 10
217.841346
 20
209.241103
 30
0.0
 10
217.841346
 20
204.240891
 30
0.0
 10
212.841652
 20
204.240891
 30
0.0
 10
212.841652
 20
201.241074
 30
0.0
 10
217.841346
 20
201.241074
 30
0.0
 10
217.841346
 20
196.240862
 30
0.0
 10
220.841681
 20
196.240862
 30
0.0
 10
220.841681
 20
201.241074
 30
0.0
  0
LWPOLYLINE
  5
106
100
AcDbEntity
  8
0
 62
1
100
AcDbPolyline
 90
12
 70
1
 10
260.841305
 20
204.240891
 30
0.0
 10
260.841305
 20
201.241074
 30
0.0
 10
265.841506
 20
201.241074
 30
0.0
 10
265.841506
 20
196.240862
 30
0.0
 10
268.841326
 20
196.240862
 30
0.0
 10
268.841326
 20
201.241074
 30
0.0
 10
273.841554
 20
201.241074
 30
0.0
 10
273.841554
 20
204.240891
 30
0.0
 10
268.841326
 20
204.240891
 30
0.0
 10
268.841326
 20
209.241103
 30
0.0
 10
265.841506
 20
209.241103
 30
0.0
 10
265.841506
 20
204.240891
 30
0.0
  0
LWPOLYLINE
  5
107
100
AcDbEntity
  8
0
 62
1
100
AcDbPolyline
 90
12
 70
1
 10
313.841686
 20
196.240862
 30
0.0
 10
316.841505
 20
196.240862
 30
0.0
 10
316.841505
 20
201.241074
 30
0.0
 10
321.841204
 20
201.241074
 30
0.0
 10
321.841204
 20
204.240891
 30
0.0
 10
316.841505
 20
204.240891
 30
0.0
 10
316.841505
 20
209.241103
 30
0.0
 10
313.841686
 20
209.241103
 30
0.0
 10
313.841686
 20
204.240891
 30
0.0
 10
308.841484
 20
204.240891
 30
0.0
 10
308.841484
 20
201.241074
 30
0.0
 10
313.841686
 20
201.241074
 30
0.0
  0
LWPOLYLINE
  5
108
100
AcDbEntity
  8
0
 62
1
100
AcDbPolyline
 90
12
 70
1
 10
356.841637
 20
204.240891
 30
0.0
 10
356.841637
 20
201.241074
 30
0.0
 10
361.841336
 20
201.241074
 30
0.0
 10
361.841336
 20
196.240862
 30
0.0
 10
364.841684
 20
196.240862
 30
0.0
 10
364.841684
 20
201.241074
 30
0.0
 10
369.841357
 20
201.241074
 30
0.0
 10
369.841357
 20
204.240891
 30
0.0
 10
364.841684
 20
204.240891
 30
0.0
 10
364.841684
 20
209.241103
 30
0.0
 10
361.841336
 20
209.241103
 30
0.0
 10
361.841336
 20
204.240891
 30
0.0
  0
LWPOLYLINE
  5
109
100
AcDbEntity
  8
0
 62
1
100
AcDbPolyline
 90
12
 70
1
 10
417.841536
 20
201.241074
 30
0.0
 10
417.841536
 20
204.240891
 30
0.0
 10
412.841334
 20
204.240891
 30
0.0
 10
412.841334
 20
209.241103
 30
0.0
 10
409.841515
 20
209.241103
 30
0.0
 10
409.841515
 20
204.240891
 30
0.0
 10
404.841287
 20
204.240891
 30
0.0
 10
404.841287
 20
201.241074
 30
0.0
 10
409.841515
 20
201.241074
 30
0.0
 10
409.841515
 20
196.240862
 30
0.0
 10
412.841334
 20
196.240862
 30
0.0
 10
412.841334
 20
201.241074
 30
0.0
  0
LWPOLYLINE
  5
10a
100
AcDbEntity
  8
0
 62
1
100
AcDbPolyline
 90
12
 70
1
 10
212.841652
 20
156.241238
 30
0.0
 10
212.841652
 20
153.240903
 30
0.0
 10
217.841346
 20
153.240903
 30
0.0
 10
217.841346
 20
148.241209
 30
0.0
 10
220.841681
 20
148.241209
 30
0.0
 10
220.841681
 20
153.240903
 30
0.0
 10
225.841375
 20
153.240903
 30
0.0
 10
225.841375
 20
156.241238
 30
0.0
 10
220.841681
 20
156.241238
 30
0.0
 10
220.841681
 20
161.240932
 30
0.0
 10
217.841346
 20
161.240932
 30
0.0
 10
217.841346
 20
156.241238
 30
0.0
  0
LWPOLYLINE
  5
10b
100
AcDbEntity
  8
0
 62
1
100
AcDbPolyline
 90
12
 70
1
 10
265.841506
 20
148.241209
 30
0.0
 10
268.841326
 20
148.241209
 30
0.0
 10
268.841326
 20
153.240903
 30
0.0
 10
273.841554
 20
153.240903
 30
0.0
 10
273.841554
 20
156.241238
 30
0.0
 10
268.841326
 20
156.241238
 30
0.0
 10
268.841326
 20
161.240932
 30
0.0
 10
265.841506
 20
161.240932
 30
0.0
 10
265.841506
 20
156.241238
 30
0.0
 10
260.841305
 20
156.241238
 30
0.0
 10
260.841305
 20
153.240903
 30
0.0
 10
265.841506
 20
153.240903
 30
0.0
  0
LWPOLYLINE
  5
10c
100
AcDbEntity
  8
0
 62
1
100
AcDbPolyline
 90
12
 70
1
 10
321.841204
 20
153.240903
 30
0.0
 10
321.841204
 20
156.241238
 30
0.0
 10
316.841505
 20
156.241238
 30
0.0
 10
316.841505
 20
161.240932
 30
0.0
 10
313.841686
 20
161.240932
 30
0.0
 10
313.841686
 20
156.241238
 30
0.0
 10
308.841484
 20
156.241238
 30
0.0
 10
308.841484
 20
153.240903
 30
0.0
 10
313.841686
 20
153.240903
 30
0.0
 10
313.841686
 20
148.241209
 30
0.0
 10
316.841505
 20
148.241209
 30
0.0
 10
316.841505
 20
153.240903
 30
0.0
  0
LWPOLYLINE
  5
10d
100
AcDbEntity
  8
0
 62
1
100
AcDbPolyline
 90
12
 70
1
 10
369.841357
 20
153.240903
 30
0.0
 10
369.841357
 20
156.241238
 30
0.0
 10
364.841684
 20
156.241238
 30
0.0
 10
364.841684
 20
161.240932
 30
0.0
 10
361.841336
 20
161.240932
 30
0.0
 10
361.841336
 20
156.241238
 30
0.0
 10
356.841637
 20
156.241238
 30
0.0
 10
356.841637
 20
153.240903
 30
0.0
 10
361.841336
 20
153.240903
 30
0.0
 10
361.841336
 20
148.241209
 30
0.0
 10
364.841684
 20
148.241209
 30
0.0
 10
364.841684
 20
153.240903
 30
0.0
  0
LWPOLYLINE
  5
10e
100
AcDbEntity
  8
0
 62
1
100
AcDbPolyline
 90
12
 70
1
 10
404.841287
 20
156.241238
 30
0.0
 10
404.841287
 20
153.240903
 30
0.0
 10
409.841515
 20
153.240903
 30
0.0
 10
409.841515
 20
148.241209
 30
0.0
 10
412.841334
 20
148.241209
 30
0.0
 10
412.841334
 20
153.240903
 30
0.0
 10
417.841536
 20
153.240903
 30
0.0
 10
417.841536
 20
156.241238
 30
0.0
 10
412.841334
 20
156.241238
 30
0.0
 10
412.841334
 20
161.240932
 30
0.0
 10
409.841515
 20
161.240932
 30
0.0
 10
409.841515
 20
156.241238
 30
0.0
  0
LWPOLYLINE
  5
10f
100
AcDbEntity
  8
0
 62
1
100
AcDbPolyline
 90
12
 70
1
 10
217.841346
 20
100.241038
 30
0.0
 10
220.841681
 20
100.241038
 30
0.0
 10
220.841681
 20
105.241248
 30
0.0
 10
225.841375
 20
105.241248
 30
0.0
 10
225.841375
 20
108.241064
 30
0.0
 10
220.841681
 20
108.241064
 30
0.0
 10
220.841681
 20
113.241279
 30
0.0
 10
217.841346
 20
113.241279
 30
0.0
 10
217.841346
 20
108.241064
 30
0.0
 10
212.841652
 20
108.241064
 30
0.0
 10
212.841652
 20
105.241248
 30
0.0
 10
217.841346
 20
105.241248
 30
0.0
  0
LWPOLYLINE
  5
110
100
AcDbEntity
  8
0
 62
1
100
AcDbPolyline
 90
12
 70
1
 10
260.841305
 20
108.241064
 30
0.0
 10
260.841305
 20
105.241248
 30
0.0
 10
265.841506
 20
105.241248
 30
0.0
 10
265.841506
 20
100.241038
 30
0.0
 10
268.841326
 20
100.241038
 30
0.0
 10
268.841326
 20
105.241248
 30
0.0
 10
273.841554
 20
105.241248
 30
0.0
 10
273.841554
 20
108.241064
 30
0.0
 10
268.841326
 20
108.241064
 30
0.0
 10
268.841326
 20
113.241279
 30
0.0
 10
265.841506
 20
113.241279
 30
0.0
 10
265.841506
 20
108.241064
 30
0.0
  0
LWPOLYLINE
  5
111
100
AcDbEntity
  8
0
 62
1
100
AcDbPolyline
 90
12
 70
1
 10
313.841686
 20
100.241038
 30
0.0
 10
316.841505
 20
100.241038
 30
0.0
 10
316.841505
 20
105.241248
 30
0.0
 10
321.841204
 20
105.241248
 30
0.0
 10
321.841204
 20
108.241064
 30
0.0
 10
316.841505
 20
108.241064
 30
0.0
 10
316.841505
 20
113.241279
 30
0.0
 10
313.841686
 20
113.241279
 30
0.0
 10
313.841686
 20
108.241064
 30
0.0
 10
308.841484
 20
108.241064
 30
0.0
 10
308.841484
 20
105.241248
 30
0.0
 10
313.841686
 20
105.241248
 30
0.0
  0
LWPOLYLINE
  5
112
100
AcDbEntity
  8
0
 62
1
100
AcDbPolyline
 90
12
 70
1
 10
361.841336
 20
100.241038
 30
0.0
 10
364.841684
 20
100.241038
 30
0.0
 10
364.841684
 20
105.241248
 30
0.0
 10
369.841357
 20
105.241248
 30
0.0
 10
369.841357
 20
108.241064
 30
0.0
 10
364.841684
 20
108.241064
 30
0.0
 10
364.841684
 20
113.241279
 30
0.0
 10
361.841336
 20
113.241279
 30
0.0
 10
361.841336
 20
108.241064
 30
0.0
 10
356.841637
 20
108.241064
 30
0.0
 10
356.841637
 20
105.241248
 30
0.0
 10
361.841336
 20
105.241248
 30
0.0
  0
LWPOLYLINE
  5
113
100
AcDbEntity
  8
0
 62
1
100
AcDbPolyline
 90
12
 70
1
 10
412.841334
 20
113.241279
 30
0.0
 10
409.841515
 20
113.241279
 30
0.0
 10
409.841515
 20
108.241064
 30
0.0
 10
404.841287
 20
108.241064
 30
0.0
 10
404.841287
 20
105.241248
 30
0.0
 10
409.841515
 20
105.241248
 30
0.0
 10
409.841515
 20
100.241038
 30
0.0
 10
412.841334
 20
100.241038
 30
0.0
 10
412.841334
 20
105.241248
 30
0.0
 10
417.841536
 20
105.241248
 30
0.0
 10
417.841536
 20
108.241064
 30
0.0
 10
412.841334
 20
108.241064
 30
0.0
  0
LWPOLYLINE
  5
114
100
AcDbEntity
  8
0
 62
1
100
AcDbPolyline
 90
12
 70
1
 10
212.841652
 20
60.240896
 30
0.0
 10
212.841652
 20
57.241079
 30
0.0
 10
217.841346
 20
57.241079
 30
0.0
 10
217.841346
 20
52.240867
 30
0.0
 10
220.841681
 20
52.240867
 30
0.0
 10
220.841681
 20
57.241079
 30
0.0
 10
225.841375
 20
57.241079
 30
0.0
 10
225.841375
 20
60.240896
 30
0.0
 10
220.841681
 20
60.240896
 30
0.0
 10
220.841681
 20
65.241105
 30
0.0
 10
217.841346
 20
65.241105
 30
0.0
 10
217.841346
 20
60.240896
 30
0.0
  0
LWPOLYLINE
  5
115
100
AcDbEntity
  8
0
 62
1
100
AcDbPolyline
 90
12
 70
1
 10
273.841554
 20
57.241079
 30
0.0
 10
273.841554
 20
60.240896
 30
0.0
 10
268.841326
 20
60.240896
 30
0.0
 10
268.841326
 20
65.241105
 30
0.0
 10
265.841506
 20
65.241105
 30
0.0
 10
265.841506
 20
60.240896
 30
0.0
 10
260.841305
 20
60.240896
 30
0.0
 10
260.841305
 20
57.241079
 30
0.0
 10
265.841506
 20
57.241079
 30
0.0
 10
265.841506
 20
52.240867
 30
0.0
 10
268.841326
 20
52.240867
 30
0.0
 10
268.841326
 20
57.241079
 30
0.0
  0
LWPOLYLINE
  5
116
100
AcDbEntity
  8
0
 62
1
100
AcDbPolyline
 90
12
 70
1
 10
308.841484
 20
60.240896
 30
0.0
 10
308.841484
 20
57.241079
 30
0.0
 10
313.841686
 20
57.241079
 30
0.0
 10
313.841686
 20
52.240867
 30
0.0
 10
316.841505
 20
52.240867
 30
0.0
 10
316.841505
 20
57.241079
 30
0.0
 10
321.841204
 20
57.241079
 30
0.0
 10
321.841204
 20
60.240896
 30
0.0
 10
316.841505
 20
60.240896
 30
0.0
 10
316.841505
 20
65.241105
 30
0.0
 10
313.841686
 20
65.241105
 30
0.0
 10
313.841686
 20
60.240896
 30
0.0
  0
LWPOLYLINE
  5
117
100
AcDbEntity
  8
0
 62
1
100
AcDbPolyline
 90
12
 70
1
 10
361.841336
 20
52.240867
 30
0.0
 10
364.841684
 20
52.240867
 30
0.0
 10
364.841684
 20
57.241079
 30
0.0
 10
369.841357
 20
57.241079
 30
0.0
 10
369.841357
 20
60.240896
 30
0.0
 10
364.841684
 20
60.240896
 30
0.0
 10
364.841684
 20
65.241105
 30
0.0
 10
361.841336
 20
65.241105
 30
0.0
 10
361.841336
 20
60.240896
 30
0.0
 10
356.841637
 20
60.240896
 30
0.0
 10
356.841637
 20
57.241079
 30
0.0
 10
361.841336
 20
57.241079
 30
0.0
  0
LWPOLYLINE
  5
118
100
AcDbEntity
  8
0
 62
1
100
AcDbPolyline
 90
12
 70
1
 10
409.841515
 20
52.240867
 30
0.0
 10
412.841334
 20
52.240867
 30
0.0
 10
412.841334
 20
57.241079
 30
0.0
 10
417.841536
 20
57.241079
 30
0.0
 10
417.841536
 20
60.240896
 30
0.0
 10
412.841334
 20
60.240896
 30
0.0
 10
412.841334
 20
65.241105
 30
0.0
 10
409.841515
 20
65.241105
 30
0.0
 10
409.841515
 20
60.240896
 30
0.0
 10
404.841287
 20
60.240896
 30
0.0
 10
404.841287
 20
57.241079
 30
0.0
 10
409.841515
 20
57.241079
 30
0.0
  0
LWPOLYLINE
  5
119
100
AcDbEntity
  8
0
 62
1
100
AcDbPolyline
 90
4
 70
1
 10
217.841436
 20
297.241106
 30
0.0
 10
217.841436
 20
292.241106
 30
0.0
 10
220.841435
 20
292.241106
 30
0.0
 10
220.841435
 20
297.241106
 30
0.0
  0
LWPOLYLINE
  5
11a
100
AcDbEntity
  8
0
 62
1
100
AcDbPolyline
 90
4
 70
0
 10
265.841427
 20
297.241106
 30
0.0
 10
265.841427
 20
292.241106
 30
0.0
 10
268.841432
 20
292.241106
 30
0.0
 10
268.841432
 20
297.241106
 30
0.0
  0
LWPOLYLINE
  5
11b
100
AcDbEntity
  8
0
 62
1
100
AcDbPolyline
 90
4
 70
0
 10
361.841441
 20
297.241106
 30
0.0
 10
361.841441
 20
292.241106
 30
0.0
 10
364.841446
 20
292.241106
 30
0.0
 10
364.841446
 20
297.241106
 30
0.0
  0
LWPOLYLINE
  5
11c
100
AcDbEntity
  8
0
 62
1
100
AcDbPolyline
 90
4
 70
1
 10
409.841435
 20
297.241106
 30
0.0
 10
409.841435
 20
292.241106
 30
0.0
 10
412.841440
 20
292.241106
 30
0.0
 10
412.841440
 20
297.241106
 30
0.0
  0
LWPOLYLINE
  5
11d
100
AcDbEntity
  8
0
 62
1
100
AcDbPolyline
 90
4
 70
1
 10
457.841429
 20
252.241107
 30
0.0
 10
452.841439
 20
252.241107
 30
0.0
 10
452.841439
 20
249.241108
 30
0.0
 10
457.841429
 20
249.241108
 30
0.0
  0
LWPOLYLINE
  5
11e
100
AcDbEntity
  8
0
 62
1
100
AcDbPolyline
 90
4
 70
0
 10
457.841429
 20
204.241105
 30
0.0
 10
452.841439
 20
204.241105
 30
0.0
 10
452.841439
 20
201.241106
 30
0.0
 10
457.841429
 20
201.241106
 30
0.0
  0
LWPOLYLINE
  5
11f
100
AcDbEntity
  8
0
 62
1
100
AcDbPolyline
 90
4
 70
1
 10
457.841429
 20
156.241106
 30
0.0
 10
452.841439
 20
156.241106
 30
0.0
 10
452.841439
 20
153.241107
 30
0.0
 10
457.841429
 20
153.241107
 30
0.0
  0
LWPOLYLINE
  5
120
100
AcDbEntity
  8
0
 62
1
100
AcDbPolyline
 90
4
 70
0
 10
457.841429
 20
108.241104
 30
0.0
 10
452.841439
 20
108.241104
 30
0.0
 10
452.841439
 20
105.241105
 30
0.0
 10
457.841429
 20
105.241105
 30
0.0
  0
LWPOLYLINE
  5
121
100
AcDbEntity
  8
0
 62
1
100
AcDbPolyline
 90
4
 70
1
 10
457.841429
 20
60.241105
 30
0.0
 10
452.841439
 20
60.241105
 30
0.0
 10
452.841439
 20
57.241103
 30
0.0
 10
457.841429
 20
57.241103
 30
0.0
  0
LWPOLYLINE
  5
122
100
AcDbEntity
  8
0
 62
1
100
AcDbPolyline
 90
4
 70
1
 10
412.841440
 20
12.241103
 30
0.0
 10
412.841440
 20
17.241093
 30
0.0
 10
409.841435
 20
17.241093
 30
0.0
 10
409.841435
 20
12.241103
 30
0.0
  0
LWPOLYLINE
  5
123
100
AcDbEntity
  8
0
 62
1
100
AcDbPolyline
 90
4
 70
0
 10
364.841446
 20
12.241103
 30
0.0
 10
364.841446
 20
17.241093
 30
0.0
 10
361.841441
 20
17.241093
 30
0.0
 10
361.841441
 20
12.241103
 30
0.0
  0
LWPOLYLINE
  5
124
100
AcDbEntity
  8
0
 62
1
100
AcDbPolyline
 90
4
 70
1
 10
316.841426
 20
12.241103
 30
0.0
 10
316.841426
 20
17.241093
 30
0.0
 10
313.841447
 20
17.241093
 30
0.0
 10
313.841447
 20
12.241103
 30
0.0
  0
LWPOLYLINE
  5
125
100
AcDbEntity
  8
0
 62
1
100
AcDbPolyline
 90
4
 70
0
 10
268.841432
 20
12.241103
 30
0.0
 10
268.841432
 20
17.241093
 30
0.0
 10
265.841427
 20
17.241093
 30
0.0
 10
265.841427
 20
12.241103
 30
0.0
  0
LWPOLYLINE
  5
126
100
AcDbEntity
  8
0
 62
1
100
AcDbPolyline
 90
4
 70
1
 10
220.841435
 20
12.241103
 30
0.0
 10
220.841435
 20
17.241093
 30
0.0
 10
217.841436
 20
17.241093
 30
0.0
 10
217.841436
 20
12.241103
 30
0.0
  0
LWPOLYLINE
  5
127
100
AcDbEntity
  8
0
 62
1
100
AcDbPolyline
 90
4
 70
1
 10
172.841436
 20
57.241103
 30
0.0
 10
177.841436
 20
57.241103
 30
0.0
 10
177.841436
 20
60.241105
 30
0.0
 10
172.841436
 20
60.241105
 30
0.0
  0
LWPOLYLINE
  5
128
100
AcDbEntity
  8
0
 62
1
100
AcDbPolyline
 90
4
 70
0
 10
172.841436
 20
105.241105
 30
0.0
 10
177.841436
 20
105.241105
 30
0.0
 10
177.841436
 20
108.241104
 30
0.0
 10
172.841436
 20
108.241104
 30
0.0
  0
LWPOLYLINE
  5
129
100
AcDbEntity
  8
0
 62
1
100
AcDbPolyline
 90
4
 70
1
 10
172.841436
 20
153.241107
 30
0.0
 10
177.841436
 20
153.241107
 30
0.0
 10
177.841436
 20
156.241106
 30
0.0
 10
172.841436
 20
156.241106
 30
0.0
  0
LWPOLYLINE
  5
12a
100
AcDbEntity
  8
0
 62
1
100
AcDbPolyline
 90
4
 70
0
 10
172.841436
 20
201.241106
 30
0.0
 10
177.841436
 20
201.241106
 30
0.0
 10
177.841436
 20
204.241105
 30
0.0
 10
172.841436
 20
204.241105
 30
0.0
  0
LWPOLYLINE
  5
12b
100
AcDbEntity
  8
0
 62
1
100
AcDbPolyline
 90
4
 70
1
 10
172.841436
 20
249.241108
 30
0.0
 10
177.841436
 20
249.241108
 30
0.0
 10
177.841436
 20
252.241107
 30
0.0
 10
172.841436
 20
252.241107
 30
0.0
  0
LWPOLYLINE
  5
12c
100
AcDbEntity
  8
0
 62
1
100
AcDbPolyline
 90
212
 70
1
 10
166.841445
 20
6.240988
 30
0.0
 10
166.841445
 20
16.507483
 30
0.0
 10
172.841454
 20
16.507483
 30
0.0
 10
172.841454
 20
26.698862
 30
0.0
 10
166.841445
 20
26.698862
 30
0.0
 10
166.841445
 20
36.990254
 30
0.0
 10
172.841454
 20
36.990254
 30
0.0
 10
172.841454
 20
47.181623
 30
0.0
 10
166.841445
 20
47.181623
 30
0.0
 10
166.841445
 20
57.473002
 30
0.0
 10
172.841454
 20
57.473002
 30
0.0
 10
172.841454
 20
67.664379
 30
0.0
 10
166.841445
 20
67.664379
 30
0.0
 10
166.841445
 20
77.955758
 30
0.0
 10
172.841454
 20
77.955758
 30
0.0
 10
172.841454
 20
88.147138
 30
0.0
 10
166.841445
 20
88.147138
 30
0.0
 10
166.841445
 20
98.438514
 30
0.0
 10
172.841454
 20
98.438514
 30
0.0
 10
172.841454
 20
108.629893
 30
0.0
 10
166.841445
 20
108.629893
 30
0.0
 10
166.841445
 20
118.921272
 30
0.0
 10
172.841454
 20
118.921272
 30
0.0
 10
172.841454
 20
129.112652
 30
0.0
 10
166.841445
 20
129.112652
 30
0.0
 10
166.841445
 20
139.404031
 30
0.0
 10
172.841454
 20
139.404031
 30
0.0
 10
172.841454
 20
149.595410
 30
0.0
 10
166.841445
 20
149.595410
 30
0.0
 10
166.841445
 20
159.886789
 30
0.0
 10
172.841454
 20
159.886789
 30
0.0
 10
172.841454
 20
170.078166
 30
0.0
 10
166.841445
 20
170.078166
 30
0.0
 10
166.841445
 20
180.369545
 30
0.0
 10
172.841454
 20
180.369545
 30
0.0
 10
172.841454
 20
190.560925
 30
0.0
 10
166.841445
 20
190.560925
 30
0.0
 10
166.841445
 20
200.852301
 30
0.0
 10
172.841454
 20
200.852301
 30
0.0
 10
172.841454
 20
211.043680
 30
0.0
 10
166.841445
 20
211.043680
 30
0.0
 10
166.841445
 20
221.335059
 30
0.0
 10
172.841454
 20
221.335059
 30
0.0
 10
172.841454
 20
231.526436
 30
0.0
 10
166.841445
 20
231.526436
 30
0.0
 10
166.841445
 20
241.817818
 30
0.0
 10
172.841454
 20
241.817818
 30
0.0
 10
172.841454
 20
252.009197
 30
0.0
 10
166.841445
 20
252.009197
 30
0.0
 10
166.841445
 20
262.300576
 30
0.0
 10
172.841454
 20
262.300576
 30
0.0
 10
172.841454
 20
272.491953
 30
0.0
 10
166.841445
 20
272.491953
 30
0.0
 10
166.841445
 20
282.783331
 30
0.0
 10
172.841454
 20
282.783331
 30
0.0
 10
172.841454
 20
292.974711
 30
0.0
 10
166.841445
 20
292.974711
 30
0.0
 10
166.841445
 20
303.241089
 30
0.0
 10
177.107834
 20
303.241089
 30
0.0
 10
177.107834
 20
297.241088
 30
0.0
 10
187.299214
 20
297.241088
 30
0.0
 10
187.299214
 20
303.241089
 30
0.0
 10
197.590579
 20
303.241089
 30
0.0
 10
197.590579
 20
297.241088
 30
0.0
 10
207.781959
 20
297.241088
 30
0.0
 10
207.781959
 20
303.241089
 30
0.0
 10
218.073351
 20
303.241089
 30
0.0
 10
218.073351
 20
297.241088
 30
0.0
 10
228.264731
 20
297.241088
 30
0.0
 10
228.264731
 20
303.241089
 30
0.0
 10
238.556096
 20
303.241089
 30
0.0
 10
238.556096
 20
297.241088
 30
0.0
 10
248.747476
 20
297.241088
 30
0.0
 10
248.747476
 20
303.241089
 30
0.0
 10
259.038868
 20
303.241089
 30
0.0
 10
259.038868
 20
297.241088
 30
0.0
 10
269.230237
 20
297.241088
 30
0.0
 10
269.230237
 20
303.241089
 30
0.0
 10
279.521603
 20
303.241089
 30
0.0
 10
279.521603
 20
297.241088
 30
0.0
 10
289.712982
 20
297.241088
 30
0.0
 10
289.712982
 20
303.241089
 30
0.0
 10
300.004374
 20
303.241089
 30
0.0
 10
300.004374
 20
297.241088
 30
0.0
 10
310.195754
 20
297.241088
 30
0.0
 10
310.195754
 20
303.241089
 30
0.0
 10
320.487119
 20
303.241089
 30
0.0
 10
320.487119
 20
297.241088
 30
0.0
 10
330.678499
 20
297.241088
 30
0.0
 10
330.678499
 20
303.241089
 30
0.0
 10
340.969891
 20
303.241089
 30
0.0
 10
340.969891
 20
297.241088
 30
0.0
 10
351.161271
 20
297.241088
 30
0.0
 10
351.161271
 20
303.241089
 30
0.0
 10
361.452636
 20
303.241089
 30
0.0
 10
361.452636
 20
297.241088
 30
0.0
 10
371.644016
 20
297.241088
 30
0.0
 10
371.644016
 20
303.241089
 30
0.0
 10
381.935408
 20
303.241089
 30
0.0
 10
381.935408
 20
297.241088
 30
0.0
 10
392.126788
 20
297.241088
 30
0.0
 10
392.126788
 20
303.241089
 30
0.0
 10
402.418153
 20
303.241089
 30
0.0
 10
402.418153
 20
297.241088
 30
0.0
 10
412.609533
 20
297.241088
 30
0.0
 10
412.609533
 20
303.241089
 30
0.0
 10
463.841412
 20
303.241089
 30
0.0
 10
463.841412
 20
292.974711
 30
0.0
 10
457.841429
 20
292.974711
 30
0.0
 10
457.841429
 20
282.783331
 30
0.0
 10
463.841412
 20
282.783331
 30
0.0
 10
463.841412
 20
272.491953
 30
0.0
 10
457.841429
 20
272.491953
 30
0.0
 10
457.841429
 20
262.300576
 30
0.0
 10
463.841412
 20
262.300576
 30
0.0
 10
463.841412
 20
252.009197
 30
0.0
 10
457.841429
 20
252.009197
 30
0.0
 10
457.841429
 20
241.817818
 30
0.0
 10
463.841412
 20
241.817818
 30
0.0
 10
463.841412
 20
231.526436
 30
0.0
 10
457.841429
 20
231.526436
 30
0.0
 10
457.841429
 20
221.335059
 30
0.0
 10
463.841412
 20
221.335059
 30
0.0
 10
463.841412
 20
211.043680
 30
0.0
 10
457.841429
 20
211.043680
 30
0.0
 10
457.841429
 20
200.852301
 30
0.0
 10
463.841412
 20
200.852301
 30
0.0
 10
463.841412
 20
190.560925
 30
0.0
 10
457.841429
 20
190.560925
 30
0.0
 10
457.841429
 20
180.369545
 30
0.0
 10
463.841412
 20
180.369545
 30
0.0
 10
463.841412
 20
170.078166
 30
0.0
 10
457.841429
 20
170.078166
 30
0.0
 10
457.841429
 20
159.886789
 30
0.0
 10
463.841412
 20
159.886789
 30
0.0
 10
463.841412
 20
149.595410
 30
0.0
 10
457.841429
 20
149.595410
 30
0.0
 10
457.841429
 20
139.404031
 30
0.0
 10
463.841412
 20
139.404031
 30
0.0
 10
463.841412
 20
129.112652
 30
0.0
 10
457.841429
 20
129.112652
 30
0.0
 10
457.841429
 20
118.921272
 30
0.0
 10
463.841412
 20
118.921272
 30
0.0
 10
463.841412
 20
108.629893
 30
0.0
 10
457.841429
 20
108.629893
 30
0.0
 10
457.841429
 20
98.438514
 30
0.0
 10
463.841412
 20
98.438514
 30
0.0
 10
463.841412
 20
88.147138
 30
0.0
 10
457.841429
 20
88.147138
 30
0.0
 10
457.841429
 20
77.955758
 30
0.0
 10
463.841412
 20
77.955758
 30
0.0
 10
463.841412
 20
67.664379
 30
0.0
 10
457.841429
 20
67.664379
 30
0.0
 10
457.841429
 20
57.473002
 30
0.0
 10
463.841412
 20
57.473002
 30
0.0
 10
463.841412
 20
47.181623
 30
0.0
 10
457.841429
 20
47.181623
 30
0.0
 10
457.841429
 20
36.990254
 30
0.0
 10
463.841412
 20
36.990254
 30
0.0
 10
463.841412
 20
26.698862
 30
0.0
 10
457.841429
 20
26.698862
 30
0.0
 10
457.841429
 20
16.507483
 30
0.0
 10
463.841412
 20
16.507483
 30
0.0
 10
463.841412
 20
6.241120
 30
0.0
 10
453.575050
 20
6.241120
 30
0.0
 10
453.575050
 20
12.241103
 30
0.0
 10
443.383670
 20
12.241103
 30
0.0
 10
443.383670
 20
6.241120
 30
0.0
 10
433.092278
 20
6.241120
 30
0.0
 10
433.092278
 20
12.241103
 30
0.0
 10
422.900898
 20
12.241103
 30
0.0
 10
422.900898
 20
6.241120
 30
0.0
 10
412.609533
 20
6.241120
 30
0.0
 10
412.609533
 20
12.241103
 30
0.0
 10
402.418153
 20
12.241103
 30
0.0
 10
402.418153
 20
6.241120
 30
0.0
 10
392.126788
 20
6.241120
 30
0.0
 10
392.126788
 20
12.241103
 30
0.0
 10
381.935408
 20
12.241103
 30
0.0
 10
381.935408
 20
6.241120
 30
0.0
 10
371.644016
 20
6.241120
 30
0.0
 10
371.644016
 20
12.241103
 30
0.0
 10
361.452636
 20
12.241103
 30
0.0
 10
361.452636
 20
6.241120
 30
0.0
 10
351.161271
 20
6.241120
 30
0.0
 10
351.161271
 20
12.241103
 30
0.0
 10
340.969891
 20
12.241103
 30
0.0
 10
340.969891
 20
6.241120
 30
0.0
 10
330.678499
 20
6.241120
 30
0.0
 10
330.678499
 20
12.241103
 30
0.0
 10
320.487119
 20
12.241103
 30
0.0
 10
320.487119
 20
6.241120
 30
0.0
 10
310.195754
 20
6.241120
 30
0.0
 10
310.195754
 20
12.241103
 30
0.0
 10
300.004374
 20
12.241103
 30
0.0
 10
300.004374
 20
6.241120
 30
0.0
 10
289.712982
 20
6.241120
 30
0.0
 10
289.712982
 20
12.241103
 30
0.0
 10
279.521602
 20
12.241103
 30
0.0
 10
279.521602
 20
6.241120
 30
0.0
 10
269.230237
 20
6.241120
 30
0.0
 10
269.230237
 20
12.241103
 30
0.0
 10
259.038868
 20
12.241103
 30
0.0
 10
259.038868
 20
6.241120
 30
0.0
 10
248.747476
 20
6.241120
 30
0.0
 10
248.747476
 20
12.241103
 30
0.0
 10
238.556096
 20
12.241103
 30
0.0
 10
238.556096
 20
6.241120
 30
0.0
 10
228.264731
 20
6.241120
 30
0.0
 10
228.264731
 20
12.241103
 30
0.0
 10
218.073351
 20
12.241103
 30
0.0
 10
218.073351
 20
6.241120
 30
0.0
  0
SPLINE
  5
12d
100
AcDbEntity
  8
0
 62
5
100
AcDbSpline
 70
8
 71
3
 72
8
 73
4
 74
0
 40
0
 40
0
 40
0
 40
0
 40
1
 40
1
 40
1
 40
1
 10
177.959242
 20
23.983999
 30
0.0
 10
177.941594
 20
23.648851
 30
0.0
 10
177.906325
 20
21.073583
 30
0.0
 10
177.888688
 20
20.773730
 30
0.0
  0
SPLINE
  5
12e
100
AcDbEntity
  8
0
 62
5
100
AcDbSpline
 70
8
 71
3
 72
8
 73
4
 74
0
 40
0
 40
0
 40
0
 40
0
 40
1
 40
1
 40
1
 40
1
 10
177.888688
 20
20.773730
 30
0.0
 10
177.800492
 20
18.480666
 30
0.0
 10
177.712299
 20
16.346351
 30
0.0
 10
177.659382
 20
14.088583
 30
0.0
  0
SPLINE
  5
12f
100
AcDbEntity
  8
0
 62
5
100
AcDbSpline
 70
8
 71
3
 72
8
 73
4
 74
0
 40
0
 40
0
 40
0
 40
0
 40
1
 40
1
 40
1
 40
1
 10
177.659382
 20
14.088583
 30
0.0
 10
177.641734
 20
13.277185
 30
0.0
 10
177.624105
 20
11.301647
 30
0.0
 10
177.624105
 20
11.301647
 30
0.0
  0
SPLINE
  5
130
100
AcDbEntity
  8
0
 62
5
100
AcDbSpline
 70
8
 71
3
 72
8
 73
4
 74
0
 40
0
 40
0
 40
0
 40
0
 40
1
 40
1
 40
1
 40
1
 10
177.624105
 20
11.301647
 30
0.0
 10
177.888688
 20
11.248730
 30
0.0
 10
178.135632
 20
11.231083
 30
0.0
 10
178.382575
 20
11.231083
 30
0.0
  0
SPLINE
  5
131
100
AcDbEntity
  8
0
 62
5
100
AcDbSpline
 70
8
 71
3
 72
8
 73
4
 74
0
 40
0
 40
0
 40
0
 40
0
 40
1
 40
1
 40
1
 40
1
 10
178.382575
 20
11.231083
 30
0.0
 10
181.381186
 20
11.231083
 30
0.0
 10
182.333686
 20
13.929833
 30
0.0
 10
182.421882
 20
17.281230
 30
0.0
  0
SPLINE
  5
132
100
AcDbEntity
  8
0
 62
5
100
AcDbSpline
 70
8
 71
3
 72
8
 73
4
 74
0
 40
0
 40
0
 40
0
 40
0
 40
1
 40
1
 40
1
 40
1
 10
182.421882
 20
17.281230
 30
0.0
 10
182.421882
 20
17.510518
 30
0.0
 10
182.439530
 20
17.775101
 30
0.0
 10
182.439530
 20
18.039685
 30
0.0
  0
SPLINE
  5
133
100
AcDbEntity
  8
0
 62
5
100
AcDbSpline
 70
8
 71
3
 72
8
 73
4
 74
0
 40
0
 40
0
 40
0
 40
0
 40
1
 40
1
 40
1
 40
1
 10
182.439530
 20
18.039685
 30
0.0
 10
182.439530
 20
20.614980
 30
0.0
 10
181.998559
 20
24.336768
 30
0.0
 10
178.823559
 20
24.477897
 30
0.0
  0
LWPOLYLINE
  5
134
100
AcDbEntity
  8
0
 62
5
100
AcDbPolyline
 90
2
 70
0
 10
177.976890
 20
24.089833
 30
0.0
 10
177.959242
 20
23.983999
 30
0.0
  0
SPLINE
  5
135
100
AcDbEntity
  8
0
 62
5
100
AcDbSpline
 70
8
 71
3
 72
8
 73
4
 74
0
 40
0
 40
0
 40
0
 40
0
 40
1
 40
1
 40
1
 40
1
 10
178.753003
 20
24.477897
 30
0.0
 10
178.488419
 20
24.477897
 30
0.0
 10
177.994532
 20
24.389685
 30
0.0
 10
177.976892
 20
24.089833
 30
0.0
  0
LWPOLYLINE
  5
136
100
AcDbEntity
  8
0
 62
5
100
AcDbPolyline
 90
2
 70
0
 10
178.823559
 20
24.477897
 30
0.0
 10
178.753003
 20
24.477897
 30
0.0
  0
SPLINE
  5
137
100
AcDbEntity
  8
0
 62
5
100
AcDbSpline
 70
8
 71
3
 72
8
 73
4
 74
0
 40
0
 40
0
 40
0
 40
0
 40
1
 40
1
 40
1
 40
1
 10
178.964667
 20
23.490101
 30
0.0
 10
181.451750
 20
23.278435
 30
0.0
 10
181.522306
 20
18.868730
 30
0.0
 10
181.434110
 20
17.210666
 30
0.0
  0
SPLINE
  5
138
100
AcDbEntity
  8
0
 62
5
100
AcDbSpline
 70
8
 71
3
 72
8
 73
4
 74
0
 40
0
 40
0
 40
0
 40
0
 40
1
 40
1
 40
1
 40
1
 10
181.434110
 20
17.210666
 30
0.0
 10
181.363557
 20
15.764268
 30
0.0
 10
180.993140
 20
11.989564
 30
0.0
 10
178.753000
 20
11.989564
 30
0.0
  0
SPLINE
  5
139
100
AcDbEntity
  8
0
 62
5
100
AcDbSpline
 70
8
 71
3
 72
8
 73
4
 74
0
 40
0
 40
0
 40
0
 40
0
 40
1
 40
1
 40
1
 40
1
 10
178.753000
 20
11.989564
 30
0.0
 10
178.735352
 20
11.989564
 30
0.0
 10
178.700083
 20
11.989564
 30
0.0
 10
178.558973
 20
12.007291
 30
0.0
  0
LWPOLYLINE
  5
13a
100
AcDbEntity
  8
0
 62
5
100
AcDbPolyline
 90
1
 70
1
 10
177.976892
 20
24.089833
 30
0.0
  0
SPLINE
  5
13b
100
AcDbEntity
  8
0
 62
5
100
AcDbSpline
 70
8
 71
3
 72
8
 73
4
 74
0
 40
0
 40
0
 40
0
 40
0
 40
1
 40
1
 40
1
 40
1
 10
184.398272
 20
10.966499
 30
0.0
 10
184.398272
 20
10.631351
 30
0.0
 10
188.349382
 20
10.560814
 30
0.0
 10
188.314105
 20
11.160518
 30
0.0
  0
SPLINE
  5
13c
100
AcDbEntity
  8
0
 62
5
100
AcDbSpline
 70
8
 71
3
 72
8
 73
4
 74
0
 40
0
 40
0
 40
0
 40
0
 40
1
 40
1
 40
1
 40
1
 10
188.314105
 20
11.160518
 30
0.0
 10
188.261188
 20
11.971916
 30
0.0
 10
187.396882
 20
11.566230
 30
0.0
 10
186.215078
 20
11.566230
 30
0.0
  0
SPLINE
  5
13d
100
AcDbEntity
  8
0
 62
5
100
AcDbSpline
 70
8
 71
3
 72
8
 73
4
 74
0
 40
0
 40
0
 40
0
 40
0
 40
1
 40
1
 40
1
 40
1
 10
186.215078
 20
11.566230
 30
0.0
 10
186.056328
 20
11.566230
 30
0.0
 10
185.456605
 20
11.566230
 30
0.0
 10
185.297855
 20
11.583957
 30
0.0
  0
LWPOLYLINE
  5
13e
100
AcDbEntity
  8
0
 62
5
100
AcDbPolyline
 90
2
 70
0
 10
178.558973
 20
12.007291
 30
0.0
 10
178.964667
 20
23.490101
 30
0.0
  0
SPLINE
  5
13f
100
AcDbEntity
  8
0
 62
5
100
AcDbSpline
 70
8
 71
3
 72
8
 73
4
 74
0
 40
0
 40
0
 40
0
 40
0
 40
1
 40
1
 40
1
 40
1
 10
187.114662
 20
16.452291
 30
0.0
 10
187.820215
 20
16.558124
 30
0.0
 10
188.137715
 20
17.369522
 30
0.0
 10
187.308688
 20
17.369522
 30
0.0
  0
LWPOLYLINE
  5
140
100
AcDbEntity
  8
0
 62
5
100
AcDbPolyline
 90
3
 70
0
 10
185.297855
 20
11.583957
 30
0.0
 10
185.350772
 20
16.187707
 30
0.0
 10
187.114662
 20
16.452291
 30
0.0
  0
SPLINE
  5
141
100
AcDbEntity
  8
0
 62
5
100
AcDbSpline
 70
8
 71
3
 72
8
 73
4
 74
0
 40
0
 40
0
 40
0
 40
0
 40
1
 40
1
 40
1
 40
1
 10
187.343965
 20
22.943419
 30
0.0
 10
187.626188
 20
22.943419
 30
0.0
 10
188.102438
 20
23.102169
 30
0.0
 10
188.102438
 20
23.454938
 30
0.0
  0
SPLINE
  5
142
100
AcDbEntity
  8
0
 62
5
100
AcDbSpline
 70
8
 71
3
 72
8
 73
4
 74
0
 40
0
 40
0
 40
0
 40
0
 40
1
 40
1
 40
1
 40
1
 10
188.102438
 20
23.454938
 30
0.0
 10
188.102438
 20
23.490207
 30
0.0
 10
188.102438
 20
23.507855
 30
0.0
 10
188.084791
 20
23.543124
 30
0.0
  0
SPLINE
  5
143
100
AcDbEntity
  8
0
 62
5
100
AcDbSpline
 70
8
 71
3
 72
8
 73
4
 74
0
 40
0
 40
0
 40
0
 40
0
 40
1
 40
1
 40
1
 40
1
 10
188.084791
 20
23.543124
 30
0.0
 10
188.067143
 20
23.631336
 30
0.0
 10
187.714374
 20
23.895919
 30
0.0
 10
187.608541
 20
23.895919
 30
0.0
  0
LWPOLYLINE
  5
144
100
AcDbEntity
  8
0
 62
5
100
AcDbPolyline
 90
5
 70
0
 10
187.308688
 20
17.369522
 30
0.0
 10
187.220495
 20
17.369522
 30
0.0
 10
185.315495
 20
17.087291
 30
0.0
 10
185.227299
 20
22.943419
 30
0.0
 10
187.343965
 20
22.943419
 30
0.0
  0
SPLINE
  5
145
100
AcDbEntity
  8
0
 62
5
100
AcDbSpline
 70
8
 71
3
 72
8
 73
4
 74
0
 40
0
 40
0
 40
0
 40
0
 40
1
 40
1
 40
1
 40
1
 10
184.821597
 20
23.895919
 30
0.0
 10
184.504097
 20
23.895919
 30
0.0
 10
184.204237
 20
23.596041
 30
0.0
 10
184.204237
 20
23.278541
 30
0.0
  0
LWPOLYLINE
  5
146
100
AcDbEntity
  8
0
 62
5
100
AcDbPolyline
 90
2
 70
0
 10
187.608541
 20
23.895919
 30
0.0
 10
184.821597
 20
23.895919
 30
0.0
  0
SPLINE
  5
147
100
AcDbEntity
  8
0
 62
5
100
AcDbSpline
 70
8
 71
3
 72
8
 73
4
 74
0
 40
0
 40
0
 40
0
 40
0
 40
1
 40
1
 40
1
 40
1
 10
185.103828
 20
26.083018
 30
0.0
 10
185.103828
 20
25.853730
 30
0.0
 10
185.297855
 20
25.677333
 30
0.0
 10
185.527162
 20
25.677333
 30
0.0
  0
SPLINE
  5
148
100
AcDbEntity
  8
0
 62
5
100
AcDbSpline
 70
8
 71
3
 72
8
 73
4
 74
0
 40
0
 40
0
 40
0
 40
0
 40
1
 40
1
 40
1
 40
1
 10
185.527162
 20
25.677333
 30
0.0
 10
185.632995
 20
25.677333
 30
0.0
 10
185.668272
 20
25.677333
 30
0.0
 10
185.774105
 20
25.765518
 30
0.0
  0
LWPOLYLINE
  5
149
100
AcDbEntity
  8
0
 62
5
100
AcDbPolyline
 90
2
 70
0
 10
184.204237
 20
23.278541
 30
0.0
 10
184.398272
 20
10.966499
 30
0.0
  0
SPLINE
  5
14a
100
AcDbEntity
  8
0
 62
5
100
AcDbSpline
 70
8
 71
3
 72
8
 73
4
 74
0
 40
0
 40
0
 40
0
 40
0
 40
1
 40
1
 40
1
 40
1
 10
187.326328
 20
26.823851
 30
0.0
 10
187.432162
 20
26.894416
 30
0.0
 10
187.414522
 20
26.912064
 30
0.0
 10
187.414522
 20
27.035518
 30
0.0
  0
SPLINE
  5
14b
100
AcDbEntity
  8
0
 62
5
100
AcDbSpline
 70
8
 71
3
 72
8
 73
4
 74
0
 40
0
 40
0
 40
0
 40
0
 40
1
 40
1
 40
1
 40
1
 10
187.414522
 20
27.035518
 30
0.0
 10
187.414522
 20
27.264833
 30
0.0
 10
187.149938
 20
27.476499
 30
0.0
 10
186.920632
 20
27.476499
 30
0.0
  0
SPLINE
  5
14c
100
AcDbEntity
  8
0
 62
5
100
AcDbSpline
 70
8
 71
3
 72
8
 73
4
 74
0
 40
0
 40
0
 40
0
 40
0
 40
1
 40
1
 40
1
 40
1
 10
186.920632
 20
27.476499
 30
0.0
 10
186.920632
 20
27.476499
 30
0.0
 10
186.797162
 20
27.423583
 30
0.0
 10
186.761882
 20
27.405935
 30
0.0
  0
LWPOLYLINE
  5
14d
100
AcDbEntity
  8
0
 62
5
100
AcDbPolyline
 90
3
 70
0
 10
185.774105
 20
25.765518
 30
0.0
 10
186.426745
 20
26.259416
 30
0.0
 10
187.326328
 20
26.823851
 30
0.0
  0
SPLINE
  5
14e
100
AcDbEntity
  8
0
 62
5
100
AcDbSpline
 70
8
 71
3
 72
8
 73
4
 74
0
 40
0
 40
0
 40
0
 40
0
 40
1
 40
1
 40
1
 40
1
 10
185.615355
 20
26.665101
 30
0.0
 10
185.403688
 20
26.523999
 30
0.0
 10
185.103828
 20
26.365249
 30
0.0
 10
185.103828
 20
26.083018
 30
0.0
  0
LWPOLYLINE
  5
14f
100
AcDbEntity
  8
0
 62
5
100
AcDbPolyline
 90
2
 70
0
 10
186.761882
 20
27.405935
 30
0.0
 10
185.615355
 20
26.665101
 30
0.0
  0
SPLINE
  5
150
100
AcDbEntity
  8
0
 62
5
100
AcDbSpline
 70
8
 71
3
 72
8
 73
4
 74
0
 40
0
 40
0
 40
0
 40
0
 40
1
 40
1
 40
1
 40
1
 10
190.095357
 20
10.190397
 30
0.0
 10
190.236467
 20
10.102185
 30
0.0
 10
190.271747
 20
10.084564
 30
0.0
 10
190.430497
 20
10.084564
 30
0.0
  0
SPLINE
  5
151
100
AcDbEntity
  8
0
 62
5
100
AcDbSpline
 70
8
 71
3
 72
8
 73
4
 74
0
 40
0
 40
0
 40
0
 40
0
 40
1
 40
1
 40
1
 40
1
 10
190.430497
 20
10.084564
 30
0.0
 10
190.606884
 20
10.084564
 30
0.0
 10
190.871467
 20
10.137480
 30
0.0
 10
190.977300
 20
10.313851
 30
0.0
  0
SPLINE
  5
152
100
AcDbEntity
  8
0
 62
5
100
AcDbSpline
 70
8
 71
3
 72
8
 73
4
 74
0
 40
0
 40
0
 40
0
 40
0
 40
1
 40
1
 40
1
 40
1
 10
190.977300
 20
10.313851
 30
0.0
 10
190.959653
 20
10.895935
 30
0.0
 10
190.959653
 20
13.612333
 30
0.0
 10
190.977300
 20
14.212064
 30
0.0
  0
SPLINE
  5
153
100
AcDbEntity
  8
0
 62
5
100
AcDbSpline
 70
8
 71
3
 72
8
 73
4
 74
0
 40
0
 40
0
 40
0
 40
0
 40
1
 40
1
 40
1
 40
1
 10
190.977300
 20
14.212064
 30
0.0
 10
190.977300
 20
14.494268
 30
0.0
 10
191.047857
 20
15.870101
 30
0.0
 10
191.065497
 20
16.152333
 30
0.0
  0
SPLINE
  5
154
100
AcDbEntity
  8
0
 62
5
100
AcDbSpline
 70
8
 71
3
 72
8
 73
4
 74
0
 40
0
 40
0
 40
0
 40
0
 40
1
 40
1
 40
1
 40
1
 10
191.065497
 20
16.152333
 30
0.0
 10
192.811747
 20
16.963730
 30
0.0
 10
194.117023
 20
19.098018
 30
0.0
 10
194.117023
 20
21.003018
 30
0.0
  0
SPLINE
  5
155
100
AcDbEntity
  8
0
 62
5
100
AcDbSpline
 70
8
 71
3
 72
8
 73
4
 74
0
 40
0
 40
0
 40
0
 40
0
 40
1
 40
1
 40
1
 40
1
 10
194.117023
 20
21.003018
 30
0.0
 10
194.117023
 20
22.766916
 30
0.0
 10
192.794107
 20
24.389685
 30
0.0
 10
190.959663
 20
24.389685
 30
0.0
  0
SPLINE
  5
156
100
AcDbEntity
  8
0
 62
5
100
AcDbSpline
 70
8
 71
3
 72
8
 73
4
 74
0
 40
0
 40
0
 40
0
 40
0
 40
1
 40
1
 40
1
 40
1
 10
190.959663
 20
24.389685
 30
0.0
 10
190.747997
 20
24.389685
 30
0.0
 10
190.307023
 20
24.424980
 30
0.0
 10
190.218830
 20
24.178018
 30
0.0
  0
SPLINE
  5
157
100
AcDbEntity
  8
0
 62
5
100
AcDbSpline
 70
8
 71
3
 72
8
 73
4
 74
0
 40
0
 40
0
 40
0
 40
0
 40
1
 40
1
 40
1
 40
1
 10
190.218830
 20
24.178018
 30
0.0
 10
190.183550
 20
22.766916
 30
0.0
 10
190.095357
 20
16.169980
 30
0.0
 10
190.095357
 20
14.758851
 30
0.0
  0
LWPOLYLINE
  5
158
100
AcDbEntity
  8
0
 62
5
100
AcDbPolyline
 90
1
 70
1
 10
185.103828
 20
26.083018
 30
0.0
  0
SPLINE
  5
159
100
AcDbEntity
  8
0
 62
5
100
AcDbSpline
 70
8
 71
3
 72
8
 73
4
 74
0
 40
0
 40
0
 40
0
 40
0
 40
1
 40
1
 40
1
 40
1
 10
191.153690
 20
23.454833
 30
0.0
 10
192.370774
 20
23.454833
 30
0.0
 10
193.023413
 20
21.796768
 30
0.0
 10
193.023413
 20
20.879564
 30
0.0
  0
SPLINE
  5
15a
100
AcDbEntity
  8
0
 62
5
100
AcDbSpline
 70
8
 71
3
 72
8
 73
4
 74
0
 40
0
 40
0
 40
0
 40
0
 40
1
 40
1
 40
1
 40
1
 10
193.023413
 20
20.879564
 30
0.0
 10
193.023413
 20
19.468435
 30
0.0
 10
192.423690
 20
18.392480
 30
0.0
 10
191.400634
 20
17.457601
 30
0.0
  0
SPLINE
  5
15b
100
AcDbEntity
  8
0
 62
5
100
AcDbSpline
 70
8
 71
3
 72
8
 73
4
 74
0
 40
0
 40
0
 40
0
 40
0
 40
1
 40
1
 40
1
 40
1
 10
191.400634
 20
17.457601
 30
0.0
 10
191.312440
 20
17.369416
 30
0.0
 10
191.153690
 20
17.334147
 30
0.0
 10
191.030217
 20
17.334147
 30
0.0
  0
LWPOLYLINE
  5
15c
100
AcDbEntity
  8
0
 62
5
100
AcDbPolyline
 90
2
 70
0
 10
190.095357
 20
14.758851
 30
0.0
 10
190.095357
 20
10.190397
 30
0.0
  0
LWPOLYLINE
  5
15d
100
AcDbEntity
  8
0
 62
5
100
AcDbPolyline
 90
2
 70
0
 10
191.030217
 20
17.334147
 30
0.0
 10
191.153690
 20
23.454833
 30
0.0
  0
SPLINE
  5
15e
100
AcDbEntity
  8
0
 62
5
100
AcDbSpline
 70
8
 71
3
 72
8
 73
4
 74
0
 40
0
 40
0
 40
0
 40
0
 40
1
 40
1
 40
1
 40
1
 10
199.017326
 20
10.895935
 30
0.0
 10
199.034974
 20
10.772480
 30
0.0
 10
199.211356
 20
10.772480
 30
0.0
 10
199.317189
 20
10.772480
 30
0.0
  0
LWPOLYLINE
  5
15f
100
AcDbEntity
  8
0
 62
5
100
AcDbPolyline
 90
2
 70
0
 10
198.576356
 20
14.247333
 30
0.0
 10
199.017326
 20
10.895935
 30
0.0
  0
SPLINE
  5
160
100
AcDbEntity
  8
0
 62
5
100
AcDbSpline
 70
8
 71
3
 72
8
 73
4
 74
0
 40
0
 40
0
 40
0
 40
0
 40
1
 40
1
 40
1
 40
1
 10
199.370106
 20
10.772480
 30
0.0
 10
199.705243
 20
10.772480
 30
0.0
 10
199.775800
 20
10.913583
 30
0.0
 10
199.899273
 20
11.248730
 30
0.0
  0
SPLINE
  5
161
100
AcDbEntity
  8
0
 62
5
100
AcDbSpline
 70
8
 71
3
 72
8
 73
4
 74
0
 40
0
 40
0
 40
0
 40
0
 40
1
 40
1
 40
1
 40
1
 10
199.899273
 20
11.248730
 30
0.0
 10
199.899273
 20
11.266457
 30
0.0
 10
199.916920
 20
11.266457
 30
0.0
 10
199.916920
 20
11.283999
 30
0.0
  0
LWPOLYLINE
  5
162
100
AcDbEntity
  8
0
 62
5
100
AcDbPolyline
 90
2
 70
0
 10
199.317189
 20
10.772480
 30
0.0
 10
199.370106
 20
10.772480
 30
0.0
  0
SPLINE
  5
163
100
AcDbEntity
  8
0
 62
5
100
AcDbSpline
 70
8
 71
3
 72
8
 73
4
 74
0
 40
0
 40
0
 40
0
 40
0
 40
1
 40
1
 40
1
 40
1
 10
199.811087
 20
12.430518
 30
0.0
 10
199.334837
 20
16.593314
 30
0.0
 10
198.858587
 20
20.738435
 30
0.0
 10
197.835533
 20
24.777749
 30
0.0
  0
LWPOLYLINE
  5
164
100
AcDbEntity
  8
0
 62
5
100
AcDbPolyline
 90
2
 70
0
 10
199.916920
 20
11.283999
 30
0.0
 10
199.811087
 20
12.430518
 30
0.0
  0
SPLINE
  5
165
100
AcDbEntity
  8
0
 62
5
100
AcDbSpline
 70
8
 71
3
 72
8
 73
4
 74
0
 40
0
 40
0
 40
0
 40
0
 40
1
 40
1
 40
1
 40
1
 10
197.694420
 20
25.148166
 30
0.0
 10
197.588587
 20
25.324564
 30
0.0
 10
197.341643
 20
25.412749
 30
0.0
 10
197.147617
 20
25.412749
 30
0.0
  0
SPLINE
  5
166
100
AcDbEntity
  8
0
 62
5
100
AcDbSpline
 70
8
 71
3
 72
8
 73
4
 74
0
 40
0
 40
0
 40
0
 40
0
 40
1
 40
1
 40
1
 40
1
 10
197.147617
 20
25.412749
 30
0.0
 10
196.706643
 20
25.412749
 30
0.0
 10
196.583170
 20
24.918851
 30
0.0
 10
196.494977
 20
24.583730
 30
0.0
  0
SPLINE
  5
167
100
AcDbEntity
  8
0
 62
5
100
AcDbSpline
 70
8
 71
3
 72
8
 73
4
 74
0
 40
0
 40
0
 40
0
 40
0
 40
1
 40
1
 40
1
 40
1
 10
196.494977
 20
24.583730
 30
0.0
 10
196.494977
 20
24.583730
 30
0.0
 10
196.477329
 20
24.548435
 30
0.0
 10
194.642893
 20
11.760249
 30
0.0
  0
SPLINE
  5
168
100
AcDbEntity
  8
0
 62
5
100
AcDbSpline
 70
8
 71
3
 72
8
 73
4
 74
0
 40
0
 40
0
 40
0
 40
0
 40
1
 40
1
 40
1
 40
1
 10
194.642893
 20
11.760249
 30
0.0
 10
194.642893
 20
11.583851
 30
0.0
 10
194.801643
 20
11.125249
 30
0.0
 10
195.030950
 20
11.125249
 30
0.0
  0
SPLINE
  5
169
100
AcDbEntity
  8
0
 62
5
100
AcDbSpline
 70
8
 71
3
 72
8
 73
4
 74
0
 40
0
 40
0
 40
0
 40
0
 40
1
 40
1
 40
1
 40
1
 10
195.030950
 20
11.125249
 30
0.0
 10
195.542477
 20
11.125249
 30
0.0
 10
195.524837
 20
11.883730
 30
0.0
 10
195.560117
 20
12.148314
 30
0.0
  0
LWPOLYLINE
  5
16a
100
AcDbEntity
  8
0
 62
5
100
AcDbPolyline
 90
2
 70
0
 10
197.835533
 20
24.777749
 30
0.0
 10
197.694420
 20
25.148166
 30
0.0
  0
LWPOLYLINE
  5
16b
100
AcDbEntity
  8
0
 62
5
100
AcDbPolyline
 90
4
 70
0
 10
195.560117
 20
12.148314
 30
0.0
 10
195.859977
 20
14.141499
 30
0.0
 10
195.965810
 20
14.247333
 30
0.0
 10
198.576356
 20
14.247333
 30
0.0
  0
SPLINE
  5
16c
100
AcDbEntity
  8
0
 62
5
100
AcDbSpline
 70
8
 71
3
 72
8
 73
4
 74
0
 40
0
 40
0
 40
0
 40
0
 40
1
 40
1
 40
1
 40
1
 10
200.981860
 20
10.490249
 30
0.0
 10
201.105331
 20
10.313851
 30
0.0
 10
201.316997
 20
10.243314
 30
0.0
 10
201.511027
 20
10.243314
 30
0.0
  0
SPLINE
  5
16d
100
AcDbEntity
  8
0
 62
5
100
AcDbSpline
 70
8
 71
3
 72
8
 73
4
 74
0
 40
0
 40
0
 40
0
 40
0
 40
1
 40
1
 40
1
 40
1
 10
201.511027
 20
10.243314
 30
0.0
 10
201.951997
 20
10.243314
 30
0.0
 10
201.899081
 20
10.613730
 30
0.0
 10
201.899081
 20
10.948851
 30
0.0
  0
SPLINE
  5
16e
100
AcDbEntity
  8
0
 62
5
100
AcDbSpline
 70
8
 71
3
 72
8
 73
4
 74
0
 40
0
 40
0
 40
0
 40
0
 40
1
 40
1
 40
1
 40
1
 10
201.899081
 20
10.948851
 30
0.0
 10
201.916729
 20
12.448166
 30
0.0
 10
202.004914
 20
16.363999
 30
0.0
 10
202.022554
 20
16.522749
 30
0.0
  0
SPLINE
  5
16f
100
AcDbEntity
  8
0
 62
5
100
AcDbSpline
 70
8
 71
3
 72
8
 73
4
 74
0
 40
0
 40
0
 40
0
 40
0
 40
1
 40
1
 40
1
 40
1
 10
202.022554
 20
16.522749
 30
0.0
 10
202.022554
 20
16.681499
 30
0.0
 10
202.093110
 20
17.387064
 30
0.0
 10
202.128387
 20
17.545814
 30
0.0
  0
LWPOLYLINE
  5
170
100
AcDbEntity
  8
0
 62
5
100
AcDbPolyline
 90
3
 70
1
 10
197.253439
 20
23.525397
 30
0.0
 10
198.435243
 20
15.288018
 30
0.0
 10
196.230383
 20
15.340935
 30
0.0
  0
SPLINE
  5
171
100
AcDbEntity
  8
0
 62
5
100
AcDbSpline
 70
8
 71
3
 72
8
 73
4
 74
0
 40
0
 40
0
 40
0
 40
0
 40
1
 40
1
 40
1
 40
1
 10
202.410610
 20
17.545814
 30
0.0
 10
203.486581
 20
17.545814
 30
0.0
 10
203.662971
 20
16.363999
 30
0.0
 10
203.733524
 20
15.499685
 30
0.0
  0
SPLINE
  5
172
100
AcDbEntity
  8
0
 62
5
100
AcDbSpline
 70
8
 71
3
 72
8
 73
4
 74
0
 40
0
 40
0
 40
0
 40
0
 40
1
 40
1
 40
1
 40
1
 10
203.733524
 20
15.499685
 30
0.0
 10
203.768804
 20
14.899980
 30
0.0
 10
203.927554
 20
12.201230
 30
0.0
 10
203.945191
 20
11.619147
 30
0.0
  0
SPLINE
  5
173
100
AcDbEntity
  8
0
 62
5
100
AcDbSpline
 70
8
 71
3
 72
8
 73
4
 74
0
 40
0
 40
0
 40
0
 40
0
 40
1
 40
1
 40
1
 40
1
 10
203.945191
 20
11.619147
 30
0.0
 10
204.015747
 20
11.372185
 30
0.0
 10
204.245054
 20
11.372185
 30
0.0
 10
204.439081
 20
11.372185
 30
0.0
  0
LWPOLYLINE
  5
174
100
AcDbEntity
  8
0
 62
5
100
AcDbPolyline
 90
2
 70
0
 10
202.128387
 20
17.545814
 30
0.0
 10
202.410610
 20
17.545814
 30
0.0
  0
SPLINE
  5
175
100
AcDbEntity
  8
0
 62
5
100
AcDbSpline
 70
8
 71
3
 72
8
 73
4
 74
0
 40
0
 40
0
 40
0
 40
0
 40
1
 40
1
 40
1
 40
1
 10
204.456729
 20
11.372185
 30
0.0
 10
204.686032
 20
11.372185
 30
0.0
 10
204.968255
 20
11.407480
 30
0.0
 10
204.968255
 20
11.707333
 30
0.0
  0
LWPOLYLINE
  5
176
100
AcDbEntity
  8
0
 62
5
100
AcDbPolyline
 90
2
 70
0
 10
204.439081
 20
11.372185
 30
0.0
 10
204.456729
 20
11.372185
 30
0.0
  0
SPLINE
  5
177
100
AcDbEntity
  8
0
 62
5
100
AcDbSpline
 70
8
 71
3
 72
8
 73
4
 74
0
 40
0
 40
0
 40
0
 40
0
 40
1
 40
1
 40
1
 40
1
 10
204.968255
 20
11.848435
 30
0.0
 10
204.968255
 20
11.954268
 30
0.0
 10
204.862422
 20
12.765666
 30
0.0
 10
204.862422
 20
12.871499
 30
0.0
  0
SPLINE
  5
178
100
AcDbEntity
  8
0
 62
5
100
AcDbSpline
 70
8
 71
3
 72
8
 73
4
 74
0
 40
0
 40
0
 40
0
 40
0
 40
1
 40
1
 40
1
 40
1
 10
204.862422
 20
12.871499
 30
0.0
 10
204.774228
 20
14.088583
 30
0.0
 10
204.968255
 20
16.610935
 30
0.0
 10
204.174505
 20
17.651647
 30
0.0
  0
SPLINE
  5
179
100
AcDbEntity
  8
0
 62
5
100
AcDbSpline
 70
8
 71
3
 72
8
 73
4
 74
0
 40
0
 40
0
 40
0
 40
0
 40
1
 40
1
 40
1
 40
1
 10
204.174505
 20
17.651647
 30
0.0
 10
204.103949
 20
17.775101
 30
0.0
 10
203.698255
 20
18.251351
 30
0.0
 10
203.610062
 20
18.339564
 30
0.0
  0
SPLINE
  5
17a
100
AcDbEntity
  8
0
 62
5
100
AcDbSpline
 70
8
 71
3
 72
8
 73
4
 74
0
 40
0
 40
0
 40
0
 40
0
 40
1
 40
1
 40
1
 40
1
 10
203.610062
 20
18.339564
 30
0.0
 10
204.774228
 20
19.133314
 30
0.0
 10
205.109366
 20
20.632601
 30
0.0
 10
205.109366
 20
21.920249
 30
0.0
  0
LWPOLYLINE
  5
17b
100
AcDbEntity
  8
0
 62
5
100
AcDbPolyline
 90
2
 70
0
 10
204.968255
 20
11.707333
 30
0.0
 10
204.968255
 20
11.848435
 30
0.0
  0
SPLINE
  5
17c
100
AcDbEntity
  8
0
 62
5
100
AcDbSpline
 70
8
 71
3
 72
8
 73
4
 74
0
 40
0
 40
0
 40
0
 40
0
 40
1
 40
1
 40
1
 40
1
 10
205.109366
 20
22.114268
 30
0.0
 10
205.109366
 20
23.666499
 30
0.0
 10
204.068672
 20
24.724833
 30
0.0
 10
202.445895
 20
24.724833
 30
0.0
  0
LWPOLYLINE
  5
17d
100
AcDbEntity
  8
0
 62
5
100
AcDbPolyline
 90
2
 70
0
 10
205.109366
 20
21.920249
 30
0.0
 10
205.109366
 20
22.114268
 30
0.0
  0
SPLINE
  5
17e
100
AcDbEntity
  8
0
 62
5
100
AcDbSpline
 70
8
 71
3
 72
8
 73
4
 74
0
 40
0
 40
0
 40
0
 40
0
 40
1
 40
1
 40
1
 40
1
 10
202.269505
 20
24.724833
 30
0.0
 10
201.563952
 20
24.724833
 30
0.0
 10
201.264089
 20
24.724833
 30
0.0
 10
201.228812
 20
23.913435
 30
0.0
  0
SPLINE
  5
17f
100
AcDbEntity
  8
0
 62
5
100
AcDbSpline
 70
8
 71
3
 72
8
 73
4
 74
0
 40
0
 40
0
 40
0
 40
0
 40
1
 40
1
 40
1
 40
1
 10
201.228812
 20
23.913435
 30
0.0
 10
201.122979
 20
19.944685
 30
0.0
 10
200.981868
 20
15.940666
 30
0.0
 10
200.981868
 20
11.971916
 30
0.0
  0
LWPOLYLINE
  5
180
100
AcDbEntity
  8
0
 62
5
100
AcDbPolyline
 90
2
 70
0
 10
202.445895
 20
24.724833
 30
0.0
 10
202.269505
 20
24.724833
 30
0.0
  0
SPLINE
  5
181
100
AcDbEntity
  8
0
 62
5
100
AcDbSpline
 70
8
 71
3
 72
8
 73
4
 74
0
 40
0
 40
0
 40
0
 40
0
 40
1
 40
1
 40
1
 40
1
 10
202.128387
 20
18.956916
 30
0.0
 10
202.128387
 20
20.526768
 30
0.0
 10
202.269497
 20
21.814416
 30
0.0
 10
202.251860
 20
23.348999
 30
0.0
  0
SPLINE
  5
182
100
AcDbEntity
  8
0
 62
5
100
AcDbSpline
 70
8
 71
3
 72
8
 73
4
 74
0
 40
0
 40
0
 40
0
 40
0
 40
1
 40
1
 40
1
 40
1
 10
202.251860
 20
23.348999
 30
0.0
 10
202.251860
 20
23.648851
 30
0.0
 10
202.428247
 20
23.807601
 30
0.0
 10
202.692831
 20
23.807601
 30
0.0
  0
SPLINE
  5
183
100
AcDbEntity
  8
0
 62
5
100
AcDbSpline
 70
8
 71
3
 72
8
 73
4
 74
0
 40
0
 40
0
 40
0
 40
0
 40
1
 40
1
 40
1
 40
1
 10
202.692831
 20
23.807601
 30
0.0
 10
203.698247
 20
23.807601
 30
0.0
 10
204.086304
 20
22.749268
 30
0.0
 10
204.086304
 20
21.920249
 30
0.0
  0
SPLINE
  5
184
100
AcDbEntity
  8
0
 62
5
100
AcDbSpline
 70
8
 71
3
 72
8
 73
4
 74
0
 40
0
 40
0
 40
0
 40
0
 40
1
 40
1
 40
1
 40
1
 10
204.086304
 20
21.920249
 30
0.0
 10
204.086304
 20
21.108851
 30
0.0
 10
203.610054
 20
18.798166
 30
0.0
 10
202.357694
 20
18.798166
 30
0.0
  0
SPLINE
  5
185
100
AcDbEntity
  8
0
 62
5
100
AcDbSpline
 70
8
 71
3
 72
8
 73
4
 74
0
 40
0
 40
0
 40
0
 40
0
 40
1
 40
1
 40
1
 40
1
 10
202.357694
 20
18.798166
 30
0.0
 10
202.251860
 20
18.798166
 30
0.0
 10
202.128387
 20
18.815893
 30
0.0
 10
202.128387
 20
18.956916
 30
0.0
  0
LWPOLYLINE
  5
186
100
AcDbEntity
  8
0
 62
5
100
AcDbPolyline
 90
2
 70
0
 10
200.981868
 20
11.971916
 30
0.0
 10
200.981860
 20
10.490249
 30
0.0
  0
SPLINE
  5
187
100
AcDbEntity
  8
0
 62
5
100
AcDbSpline
 70
8
 71
3
 72
8
 73
4
 74
0
 40
0
 40
0
 40
0
 40
0
 40
1
 40
1
 40
1
 40
1
 10
207.883900
 20
12.377601
 30
0.0
 10
207.883900
 20
12.218851
 30
0.0
 10
208.236677
 20
12.130666
 30
0.0
 10
208.342510
 20
12.130666
 30
0.0
  0
SPLINE
  5
188
100
AcDbEntity
  8
0
 62
5
100
AcDbSpline
 70
8
 71
3
 72
8
 73
4
 74
0
 40
0
 40
0
 40
0
 40
0
 40
1
 40
1
 40
1
 40
1
 10
208.342510
 20
12.130666
 30
0.0
 10
208.448344
 20
12.130666
 30
0.0
 10
208.801123
 20
12.218851
 30
0.0
 10
208.801123
 20
12.377601
 30
0.0
  0
LWPOLYLINE
  5
189
100
AcDbEntity
  8
0
 62
5
100
AcDbPolyline
 90
1
 70
1
 10
202.128387
 20
18.956916
 30
0.0
  0
SPLINE
  5
18a
100
AcDbEntity
  8
0
 62
5
100
AcDbSpline
 70
8
 71
3
 72
8
 73
4
 74
0
 40
0
 40
0
 40
0
 40
0
 40
1
 40
1
 40
1
 40
1
 10
209.947650
 20
23.578314
 30
0.0
 10
210.106400
 20
23.578314
 30
0.0
 10
210.300427
 20
23.754685
 30
0.0
 10
210.300427
 20
23.913435
 30
0.0
  0
SPLINE
  5
18b
100
AcDbEntity
  8
0
 62
5
100
AcDbSpline
 70
8
 71
3
 72
8
 73
4
 74
0
 40
0
 40
0
 40
0
 40
0
 40
1
 40
1
 40
1
 40
1
 10
210.300427
 20
23.913435
 30
0.0
 10
210.300427
 20
24.424980
 30
0.0
 10
209.647790
 20
24.477897
 30
0.0
 10
209.259734
 20
24.495518
 30
0.0
  0
LWPOLYLINE
  5
18c
100
AcDbEntity
  8
0
 62
5
100
AcDbPolyline
 90
3
 70
0
 10
208.801123
 20
12.377601
 30
0.0
 10
208.465984
 20
23.578314
 30
0.0
 10
209.947650
 20
23.578314
 30
0.0
  0
SPLINE
  5
18d
100
AcDbEntity
  8
0
 62
5
100
AcDbSpline
 70
8
 71
3
 72
8
 73
4
 74
0
 40
0
 40
0
 40
0
 40
0
 40
1
 40
1
 40
1
 40
1
 10
207.778067
 20
24.495518
 30
0.0
 10
205.943623
 20
24.601351
 30
0.0
 10
205.943623
 20
24.389685
 30
0.0
 10
205.908344
 20
23.789980
 30
0.0
  0
SPLINE
  5
18e
100
AcDbEntity
  8
0
 62
5
100
AcDbSpline
 70
8
 71
3
 72
8
 73
4
 74
0
 40
0
 40
0
 40
0
 40
0
 40
1
 40
1
 40
1
 40
1
 10
205.908344
 20
23.789980
 30
0.0
 10
205.943623
 20
23.490101
 30
0.0
 10
206.437510
 20
23.472480
 30
0.0
 10
207.531123
 20
23.543018
 30
0.0
  0
LWPOLYLINE
  5
18f
100
AcDbEntity
  8
0
 62
5
100
AcDbPolyline
 90
2
 70
0
 10
209.259734
 20
24.495518
 30
0.0
 10
207.778067
 20
24.495518
 30
0.0
  0
SPLINE
  5
190
100
AcDbEntity
  8
0
 62
5
100
AcDbSpline
 70
8
 71
3
 72
8
 73
4
 74
0
 40
0
 40
0
 40
0
 40
0
 40
1
 40
1
 40
1
 40
1
 10
416.342512
 20
281.265297
 30
0.0
 10
416.324785
 20
280.947797
 30
0.0
 10
417.083346
 20
280.841964
 30
0.0
 10
417.118615
 20
281.265297
 30
0.0
  0
SPLINE
  5
191
100
AcDbEntity
  8
0
 62
5
100
AcDbSpline
 70
8
 71
3
 72
8
 73
4
 74
0
 40
0
 40
0
 40
0
 40
0
 40
1
 40
1
 40
1
 40
1
 10
417.118615
 20
281.265297
 30
0.0
 10
417.153884
 20
282.006130
 30
0.0
 10
417.277365
 20
283.575991
 30
0.0
 10
417.418467
 20
284.405019
 30
0.0
  0
LWPOLYLINE
  5
192
100
AcDbEntity
  8
0
 62
5
100
AcDbPolyline
 90
2
 70
0
 10
207.531123
 20
23.543018
 30
0.0
 10
207.883900
 20
12.377601
 30
0.0
  0
SPLINE
  5
193
100
AcDbEntity
  8
0
 62
5
100
AcDbSpline
 70
8
 71
3
 72
8
 73
4
 74
0
 40
0
 40
0
 40
0
 40
0
 40
1
 40
1
 40
1
 40
1
 10
420.434717
 20
281.582797
 30
0.0
 10
420.752217
 20
281.018353
 30
0.0
 10
421.281384
 20
281.318214
 30
0.0
 10
421.281384
 20
281.706269
 30
0.0
  0
SPLINE
  5
194
100
AcDbEntity
  8
0
 62
5
100
AcDbSpline
 70
8
 71
3
 72
8
 73
4
 74
0
 40
0
 40
0
 40
0
 40
0
 40
1
 40
1
 40
1
 40
1
 10
421.281384
 20
281.706269
 30
0.0
 10
419.358763
 20
291.054880
 30
0.0
 10
419.023615
 20
292.660019
 30
0.0
 10
418.582634
 20
294.423908
 30
0.0
  0
SPLINE
  5
195
100
AcDbEntity
  8
0
 62
5
100
AcDbSpline
 70
8
 71
3
 72
8
 73
4
 74
0
 40
0
 40
0
 40
0
 40
0
 40
1
 40
1
 40
1
 40
1
 10
418.582634
 20
294.423908
 30
0.0
 10
418.282781
 20
295.623352
 30
0.0
 10
417.224448
 20
296.046686
 30
0.0
 10
417.118615
 20
294.423908
 30
0.0
  0
LWPOLYLINE
  5
196
100
AcDbEntity
  8
0
 62
5
100
AcDbPolyline
 90
3
 70
0
 10
417.418467
 20
284.405019
 30
0.0
 10
419.799717
 20
284.757797
 30
0.0
 10
420.434717
 20
281.582797
 30
0.0
  0
LWPOLYLINE
  5
197
100
AcDbEntity
  8
0
 62
5
100
AcDbPolyline
 90
2
 70
0
 10
417.118615
 20
294.423908
 30
0.0
 10
416.342512
 20
281.265297
 30
0.0
  0
SPLINE
  5
198
100
AcDbEntity
  8
0
 62
5
100
AcDbSpline
 70
8
 71
3
 72
8
 73
4
 74
0
 40
0
 40
0
 40
0
 40
0
 40
1
 40
1
 40
1
 40
1
 10
417.418467
 20
285.251686
 30
0.0
 10
417.418467
 20
285.392797
 30
0.0
 10
417.436194
 20
286.080714
 30
0.0
 10
417.453763
 20
286.204186
 30
0.0
  0
SPLINE
  5
199
100
AcDbEntity
  8
0
 62
5
100
AcDbSpline
 70
8
 71
3
 72
8
 73
4
 74
0
 40
0
 40
0
 40
0
 40
0
 40
1
 40
1
 40
1
 40
1
 10
417.453763
 20
286.204186
 30
0.0
 10
417.506679
 20
287.297797
 30
0.0
 10
417.824179
 20
292.342519
 30
0.0
 10
417.894717
 20
293.418491
 30
0.0
  0
LWPOLYLINE
  5
19a
100
AcDbEntity
  8
0
 62
5
100
AcDbPolyline
 90
3
 70
0
 10
417.894717
 20
293.418491
 30
0.0
 10
419.623346
 20
285.569186
 30
0.0
 10
417.418467
 20
285.251686
 30
0.0
  0
SPLINE
  5
19b
100
AcDbEntity
  8
0
 62
5
100
AcDbSpline
 70
8
 71
3
 72
8
 73
4
 74
0
 40
0
 40
0
 40
0
 40
0
 40
1
 40
1
 40
1
 40
1
 10
423.042794
 20
281.318214
 30
0.0
 10
423.166275
 20
281.141825
 30
0.0
 10
423.377942
 20
281.071269
 30
0.0
 10
423.571961
 20
281.071269
 30
0.0
  0
SPLINE
  5
19c
100
AcDbEntity
  8
0
 62
5
100
AcDbSpline
 70
8
 71
3
 72
8
 73
4
 74
0
 40
0
 40
0
 40
0
 40
0
 40
1
 40
1
 40
1
 40
1
 10
423.571961
 20
281.071269
 30
0.0
 10
424.012942
 20
281.071269
 30
0.0
 10
423.960025
 20
281.441686
 30
0.0
 10
423.960025
 20
281.776825
 30
0.0
  0
SPLINE
  5
19d
100
AcDbEntity
  8
0
 62
5
100
AcDbSpline
 70
8
 71
3
 72
8
 73
4
 74
0
 40
0
 40
0
 40
0
 40
0
 40
1
 40
1
 40
1
 40
1
 10
423.960025
 20
281.776825
 30
0.0
 10
423.977753
 20
283.276130
 30
0.0
 10
424.065859
 20
287.191964
 30
0.0
 10
424.083506
 20
287.350714
 30
0.0
  0
SPLINE
  5
19e
100
AcDbEntity
  8
0
 62
5
100
AcDbSpline
 70
8
 71
3
 72
8
 73
4
 74
0
 40
0
 40
0
 40
0
 40
0
 40
1
 40
1
 40
1
 40
1
 10
424.083506
 20
287.350714
 30
0.0
 10
424.083506
 20
287.509464
 30
0.0
 10
424.154044
 20
288.215019
 30
0.0
 10
424.189340
 20
288.373769
 30
0.0
  0
LWPOLYLINE
  5
19f
100
AcDbEntity
  8
0
 62
5
100
AcDbPolyline
 90
1
 70
1
 10
417.894717
 20
293.418491
 30
0.0
  0
SPLINE
  5
1a0
100
AcDbEntity
  8
0
 62
5
100
AcDbSpline
 70
8
 71
3
 72
8
 73
4
 74
0
 40
0
 40
0
 40
0
 40
0
 40
1
 40
1
 40
1
 40
1
 10
424.471544
 20
288.373769
 30
0.0
 10
425.547525
 20
288.373769
 30
0.0
 10
425.723923
 20
287.191964
 30
0.0
 10
425.794461
 20
286.327658
 30
0.0
  0
SPLINE
  5
1a1
100
AcDbEntity
  8
0
 62
5
100
AcDbSpline
 70
8
 71
3
 72
8
 73
4
 74
0
 40
0
 40
0
 40
0
 40
0
 40
1
 40
1
 40
1
 40
1
 10
425.794461
 20
286.327658
 30
0.0
 10
425.829756
 20
285.727936
 30
0.0
 10
425.988506
 20
283.029186
 30
0.0
 10
426.006128
 20
282.447103
 30
0.0
  0
SPLINE
  5
1a2
100
AcDbEntity
  8
0
 62
5
100
AcDbSpline
 70
8
 71
3
 72
8
 73
4
 74
0
 40
0
 40
0
 40
0
 40
0
 40
1
 40
1
 40
1
 40
1
 10
426.006128
 20
282.447103
 30
0.0
 10
426.076692
 20
282.200158
 30
0.0
 10
426.306006
 20
282.200158
 30
0.0
 10
426.500025
 20
282.200158
 30
0.0
  0
LWPOLYLINE
  5
1a3
100
AcDbEntity
  8
0
 62
5
100
AcDbPolyline
 90
2
 70
0
 10
424.189340
 20
288.373769
 30
0.0
 10
424.471544
 20
288.373769
 30
0.0
  0
SPLINE
  5
1a4
100
AcDbEntity
  8
0
 62
5
100
AcDbSpline
 70
8
 71
3
 72
8
 73
4
 74
0
 40
0
 40
0
 40
0
 40
0
 40
1
 40
1
 40
1
 40
1
 10
426.517753
 20
282.200158
 30
0.0
 10
426.747040
 20
282.200158
 30
0.0
 10
427.029271
 20
282.235436
 30
0.0
 10
427.029271
 20
282.535297
 30
0.0
  0
LWPOLYLINE
  5
1a5
100
AcDbEntity
  8
0
 62
5
100
AcDbPolyline
 90
2
 70
0
 10
426.500025
 20
282.200158
 30
0.0
 10
426.517753
 20
282.200158
 30
0.0
  0
SPLINE
  5
1a6
100
AcDbEntity
  8
0
 62
5
100
AcDbSpline
 70
8
 71
3
 72
8
 73
4
 74
0
 40
0
 40
0
 40
0
 40
0
 40
1
 40
1
 40
1
 40
1
 10
427.029271
 20
282.676408
 30
0.0
 10
427.029271
 20
282.782241
 30
0.0
 10
426.923438
 20
283.593630
 30
0.0
 10
426.923438
 20
283.699464
 30
0.0
  0
SPLINE
  5
1a7
100
AcDbEntity
  8
0
 62
5
100
AcDbSpline
 70
8
 71
3
 72
8
 73
4
 74
0
 40
0
 40
0
 40
0
 40
0
 40
1
 40
1
 40
1
 40
1
 10
426.923438
 20
283.699464
 30
0.0
 10
426.835253
 20
284.916547
 30
0.0
 10
427.029271
 20
287.438908
 30
0.0
 10
426.235521
 20
288.479602
 30
0.0
  0
SPLINE
  5
1a8
100
AcDbEntity
  8
0
 62
5
100
AcDbSpline
 70
8
 71
3
 72
8
 73
4
 74
0
 40
0
 40
0
 40
0
 40
0
 40
1
 40
1
 40
1
 40
1
 10
426.235521
 20
288.479602
 30
0.0
 10
426.164957
 20
288.603075
 30
0.0
 10
425.759271
 20
289.079325
 30
0.0
 10
425.671086
 20
289.167519
 30
0.0
  0
SPLINE
  5
1a9
100
AcDbEntity
  8
0
 62
5
100
AcDbSpline
 70
8
 71
3
 72
8
 73
4
 74
0
 40
0
 40
0
 40
0
 40
0
 40
1
 40
1
 40
1
 40
1
 10
425.671086
 20
289.167519
 30
0.0
 10
426.835253
 20
289.961269
 30
0.0
 10
427.170374
 20
291.460575
 30
0.0
 10
427.170374
 20
292.748213
 30
0.0
  0
LWPOLYLINE
  5
1aa
100
AcDbEntity
  8
0
 62
5
100
AcDbPolyline
 90
2
 70
0
 10
427.029271
 20
282.535297
 30
0.0
 10
427.029271
 20
282.676408
 30
0.0
  0
SPLINE
  5
1ab
100
AcDbEntity
  8
0
 62
5
100
AcDbSpline
 70
8
 71
3
 72
8
 73
4
 74
0
 40
0
 40
0
 40
0
 40
0
 40
1
 40
1
 40
1
 40
1
 10
427.170374
 20
292.942241
 30
0.0
 10
427.170374
 20
294.494463
 30
0.0
 10
426.129688
 20
295.552797
 30
0.0
 10
424.506919
 20
295.552797
 30
0.0
  0
LWPOLYLINE
  5
1ac
100
AcDbEntity
  8
0
 62
5
100
AcDbPolyline
 90
2
 70
0
 10
427.170374
 20
292.748213
 30
0.0
 10
427.170374
 20
292.942241
 30
0.0
  0
SPLINE
  5
1ad
100
AcDbEntity
  8
0
 62
5
100
AcDbSpline
 70
8
 71
3
 72
8
 73
4
 74
0
 40
0
 40
0
 40
0
 40
0
 40
1
 40
1
 40
1
 40
1
 10
424.330521
 20
295.552797
 30
0.0
 10
423.624957
 20
295.552797
 30
0.0
 10
423.325105
 20
295.552797
 30
0.0
 10
423.289836
 20
294.741408
 30
0.0
  0
SPLINE
  5
1ae
100
AcDbEntity
  8
0
 62
5
100
AcDbSpline
 70
8
 71
3
 72
8
 73
4
 74
0
 40
0
 40
0
 40
0
 40
0
 40
1
 40
1
 40
1
 40
1
 10
423.289836
 20
294.741408
 30
0.0
 10
423.184003
 20
290.772658
 30
0.0
 10
423.042874
 20
286.768630
 30
0.0
 10
423.042874
 20
282.799880
 30
0.0
  0
LWPOLYLINE
  5
1af
100
AcDbEntity
  8
0
 62
5
100
AcDbPolyline
 90
2
 70
0
 10
424.506919
 20
295.552797
 30
0.0
 10
424.330521
 20
295.552797
 30
0.0
  0
SPLINE
  5
1b0
100
AcDbEntity
  8
0
 62
5
100
AcDbSpline
 70
8
 71
3
 72
8
 73
4
 74
0
 40
0
 40
0
 40
0
 40
0
 40
1
 40
1
 40
1
 40
1
 10
424.189340
 20
289.784880
 30
0.0
 10
424.189340
 20
291.354741
 30
0.0
 10
424.330442
 20
292.642380
 30
0.0
 10
424.312794
 20
294.176963
 30
0.0
  0
SPLINE
  5
1b1
100
AcDbEntity
  8
0
 62
5
100
AcDbSpline
 70
8
 71
3
 72
8
 73
4
 74
0
 40
0
 40
0
 40
0
 40
0
 40
1
 40
1
 40
1
 40
1
 10
424.312794
 20
294.176963
 30
0.0
 10
424.312794
 20
294.476825
 30
0.0
 10
424.489192
 20
294.635575
 30
0.0
 10
424.753775
 20
294.635575
 30
0.0
  0
SPLINE
  5
1b2
100
AcDbEntity
  8
0
 62
5
100
AcDbSpline
 70
8
 71
3
 72
8
 73
4
 74
0
 40
0
 40
0
 40
0
 40
0
 40
1
 40
1
 40
1
 40
1
 10
424.753775
 20
294.635575
 30
0.0
 10
425.759192
 20
294.635575
 30
0.0
 10
426.147256
 20
293.577241
 30
0.0
 10
426.147256
 20
292.748213
 30
0.0
  0
SPLINE
  5
1b3
100
AcDbEntity
  8
0
 62
5
100
AcDbSpline
 70
8
 71
3
 72
8
 73
4
 74
0
 40
0
 40
0
 40
0
 40
0
 40
1
 40
1
 40
1
 40
1
 10
426.147256
 20
292.748213
 30
0.0
 10
426.147256
 20
291.936825
 30
0.0
 10
425.671006
 20
289.626130
 30
0.0
 10
424.418628
 20
289.626130
 30
0.0
  0
SPLINE
  5
1b4
100
AcDbEntity
  8
0
 62
5
100
AcDbSpline
 70
8
 71
3
 72
8
 73
4
 74
0
 40
0
 40
0
 40
0
 40
0
 40
1
 40
1
 40
1
 40
1
 10
424.418628
 20
289.626130
 30
0.0
 10
424.312794
 20
289.626130
 30
0.0
 10
424.189340
 20
289.643770
 30
0.0
 10
424.189340
 20
289.784880
 30
0.0
  0
LWPOLYLINE
  5
1b5
100
AcDbEntity
  8
0
 62
5
100
AcDbPolyline
 90
2
 70
0
 10
423.042874
 20
282.799880
 30
0.0
 10
423.042794
 20
281.318214
 30
0.0
  0
SPLINE
  5
1b6
100
AcDbEntity
  8
0
 62
5
100
AcDbSpline
 70
8
 71
3
 72
8
 73
4
 74
0
 40
0
 40
0
 40
0
 40
0
 40
1
 40
1
 40
1
 40
1
 10
428.933927
 20
281.318214
 30
0.0
 10
429.057382
 20
281.141825
 30
0.0
 10
429.269049
 20
281.071269
 30
0.0
 10
429.463094
 20
281.071269
 30
0.0
  0
SPLINE
  5
1b7
100
AcDbEntity
  8
0
 62
5
100
AcDbSpline
 70
8
 71
3
 72
8
 73
4
 74
0
 40
0
 40
0
 40
0
 40
0
 40
1
 40
1
 40
1
 40
1
 10
429.463094
 20
281.071269
 30
0.0
 10
429.904049
 20
281.071269
 30
0.0
 10
429.851132
 20
281.441686
 30
0.0
 10
429.851132
 20
281.776825
 30
0.0
  0
SPLINE
  5
1b8
100
AcDbEntity
  8
0
 62
5
100
AcDbSpline
 70
8
 71
3
 72
8
 73
4
 74
0
 40
0
 40
0
 40
0
 40
0
 40
1
 40
1
 40
1
 40
1
 10
429.851132
 20
281.776825
 30
0.0
 10
429.868859
 20
283.276130
 30
0.0
 10
429.956965
 20
287.191964
 30
0.0
 10
429.974613
 20
287.350714
 30
0.0
  0
SPLINE
  5
1b9
100
AcDbEntity
  8
0
 62
5
100
AcDbSpline
 70
8
 71
3
 72
8
 73
4
 74
0
 40
0
 40
0
 40
0
 40
0
 40
1
 40
1
 40
1
 40
1
 10
429.974613
 20
287.350714
 30
0.0
 10
429.974613
 20
287.509464
 30
0.0
 10
430.045177
 20
288.215019
 30
0.0
 10
430.080446
 20
288.373769
 30
0.0
  0
LWPOLYLINE
  5
1ba
100
AcDbEntity
  8
0
 62
5
100
AcDbPolyline
 90
1
 70
1
 10
424.189340
 20
289.784880
 30
0.0
  0
SPLINE
  5
1bb
100
AcDbEntity
  8
0
 62
5
100
AcDbSpline
 70
8
 71
3
 72
8
 73
4
 74
0
 40
0
 40
0
 40
0
 40
0
 40
1
 40
1
 40
1
 40
1
 10
430.362678
 20
288.373769
 30
0.0
 10
431.438632
 20
288.373769
 30
0.0
 10
431.615030
 20
287.191964
 30
0.0
 10
431.685594
 20
286.327658
 30
0.0
  0
SPLINE
  5
1bc
100
AcDbEntity
  8
0
 62
5
100
AcDbSpline
 70
8
 71
3
 72
8
 73
4
 74
0
 40
0
 40
0
 40
0
 40
0
 40
1
 40
1
 40
1
 40
1
 10
431.685594
 20
286.327658
 30
0.0
 10
431.720863
 20
285.727936
 30
0.0
 10
431.879613
 20
283.029186
 30
0.0
 10
431.897261
 20
282.447103
 30
0.0
  0
SPLINE
  5
1bd
100
AcDbEntity
  8
0
 62
5
100
AcDbSpline
 70
8
 71
3
 72
8
 73
4
 74
0
 40
0
 40
0
 40
0
 40
0
 40
1
 40
1
 40
1
 40
1
 10
431.897261
 20
282.447103
 30
0.0
 10
431.967799
 20
282.200158
 30
0.0
 10
432.197113
 20
282.200158
 30
0.0
 10
432.391132
 20
282.200158
 30
0.0
  0
LWPOLYLINE
  5
1be
100
AcDbEntity
  8
0
 62
5
100
AcDbPolyline
 90
2
 70
0
 10
430.080446
 20
288.373769
 30
0.0
 10
430.362678
 20
288.373769
 30
0.0
  0
SPLINE
  5
1bf
100
AcDbEntity
  8
0
 62
5
100
AcDbSpline
 70
8
 71
3
 72
8
 73
4
 74
0
 40
0
 40
0
 40
0
 40
0
 40
1
 40
1
 40
1
 40
1
 10
432.408859
 20
282.200158
 30
0.0
 10
432.638174
 20
282.200158
 30
0.0
 10
432.920378
 20
282.235436
 30
0.0
 10
432.920378
 20
282.535297
 30
0.0
  0
LWPOLYLINE
  5
1c0
100
AcDbEntity
  8
0
 62
5
100
AcDbPolyline
 90
2
 70
0
 10
432.391132
 20
282.200158
 30
0.0
 10
432.408859
 20
282.200158
 30
0.0
  0
SPLINE
  5
1c1
100
AcDbEntity
  8
0
 62
5
100
AcDbSpline
 70
8
 71
3
 72
8
 73
4
 74
0
 40
0
 40
0
 40
0
 40
0
 40
1
 40
1
 40
1
 40
1
 10
432.920378
 20
282.676408
 30
0.0
 10
432.920378
 20
282.782241
 30
0.0
 10
432.814545
 20
283.593630
 30
0.0
 10
432.814545
 20
283.699464
 30
0.0
  0
SPLINE
  5
1c2
100
AcDbEntity
  8
0
 62
5
100
AcDbSpline
 70
8
 71
3
 72
8
 73
4
 74
0
 40
0
 40
0
 40
0
 40
0
 40
1
 40
1
 40
1
 40
1
 10
432.814545
 20
283.699464
 30
0.0
 10
432.726359
 20
284.916547
 30
0.0
 10
432.920378
 20
287.438908
 30
0.0
 10
432.126628
 20
288.479602
 30
0.0
  0
SPLINE
  5
1c3
100
AcDbEntity
  8
0
 62
5
100
AcDbSpline
 70
8
 71
3
 72
8
 73
4
 74
0
 40
0
 40
0
 40
0
 40
0
 40
1
 40
1
 40
1
 40
1
 10
432.126628
 20
288.479602
 30
0.0
 10
432.056090
 20
288.603075
 30
0.0
 10
431.650378
 20
289.079325
 30
0.0
 10
431.562193
 20
289.167519
 30
0.0
  0
SPLINE
  5
1c4
100
AcDbEntity
  8
0
 62
5
100
AcDbSpline
 70
8
 71
3
 72
8
 73
4
 74
0
 40
0
 40
0
 40
0
 40
0
 40
1
 40
1
 40
1
 40
1
 10
431.562193
 20
289.167519
 30
0.0
 10
432.726359
 20
289.961269
 30
0.0
 10
433.061507
 20
291.460575
 30
0.0
 10
433.061507
 20
292.748213
 30
0.0
  0
LWPOLYLINE
  5
1c5
100
AcDbEntity
  8
0
 62
5
100
AcDbPolyline
 90
2
 70
0
 10
432.920378
 20
282.535297
 30
0.0
 10
432.920378
 20
282.676408
 30
0.0
  0
SPLINE
  5
1c6
100
AcDbEntity
  8
0
 62
5
100
AcDbSpline
 70
8
 71
3
 72
8
 73
4
 74
0
 40
0
 40
0
 40
0
 40
0
 40
1
 40
1
 40
1
 40
1
 10
433.061507
 20
292.942241
 30
0.0
 10
433.061507
 20
294.494463
 30
0.0
 10
432.020795
 20
295.552797
 30
0.0
 10
430.398026
 20
295.552797
 30
0.0
  0
LWPOLYLINE
  5
1c7
100
AcDbEntity
  8
0
 62
5
100
AcDbPolyline
 90
2
 70
0
 10
433.061507
 20
292.748213
 30
0.0
 10
433.061507
 20
292.942241
 30
0.0
  0
SPLINE
  5
1c8
100
AcDbEntity
  8
0
 62
5
100
AcDbSpline
 70
8
 71
3
 72
8
 73
4
 74
0
 40
0
 40
0
 40
0
 40
0
 40
1
 40
1
 40
1
 40
1
 10
430.221628
 20
295.552797
 30
0.0
 10
429.516090
 20
295.552797
 30
0.0
 10
429.216211
 20
295.552797
 30
0.0
 10
429.180943
 20
294.741408
 30
0.0
  0
SPLINE
  5
1c9
100
AcDbEntity
  8
0
 62
5
100
AcDbSpline
 70
8
 71
3
 72
8
 73
4
 74
0
 40
0
 40
0
 40
0
 40
0
 40
1
 40
1
 40
1
 40
1
 10
429.180943
 20
294.741408
 30
0.0
 10
429.075109
 20
290.772658
 30
0.0
 10
428.934007
 20
286.768630
 30
0.0
 10
428.934007
 20
282.799880
 30
0.0
  0
LWPOLYLINE
  5
1ca
100
AcDbEntity
  8
0
 62
5
100
AcDbPolyline
 90
2
 70
0
 10
430.398026
 20
295.552797
 30
0.0
 10
430.221628
 20
295.552797
 30
0.0
  0
SPLINE
  5
1cb
100
AcDbEntity
  8
0
 62
5
100
AcDbSpline
 70
8
 71
3
 72
8
 73
4
 74
0
 40
0
 40
0
 40
0
 40
0
 40
1
 40
1
 40
1
 40
1
 10
430.080446
 20
289.784880
 30
0.0
 10
430.080446
 20
291.354741
 30
0.0
 10
430.221549
 20
292.642380
 30
0.0
 10
430.203928
 20
294.176963
 30
0.0
  0
SPLINE
  5
1cc
100
AcDbEntity
  8
0
 62
5
100
AcDbSpline
 70
8
 71
3
 72
8
 73
4
 74
0
 40
0
 40
0
 40
0
 40
0
 40
1
 40
1
 40
1
 40
1
 10
430.203928
 20
294.176963
 30
0.0
 10
430.203928
 20
294.476825
 30
0.0
 10
430.380299
 20
294.635575
 30
0.0
 10
430.644882
 20
294.635575
 30
0.0
  0
SPLINE
  5
1cd
100
AcDbEntity
  8
0
 62
5
100
AcDbSpline
 70
8
 71
3
 72
8
 73
4
 74
0
 40
0
 40
0
 40
0
 40
0
 40
1
 40
1
 40
1
 40
1
 10
430.644882
 20
294.635575
 30
0.0
 10
431.650299
 20
294.635575
 30
0.0
 10
432.038363
 20
293.577241
 30
0.0
 10
432.038363
 20
292.748213
 30
0.0
  0
SPLINE
  5
1ce
100
AcDbEntity
  8
0
 62
5
100
AcDbSpline
 70
8
 71
3
 72
8
 73
4
 74
0
 40
0
 40
0
 40
0
 40
0
 40
1
 40
1
 40
1
 40
1
 10
432.038363
 20
292.748213
 30
0.0
 10
432.038363
 20
291.936825
 30
0.0
 10
431.562113
 20
289.626130
 30
0.0
 10
430.309761
 20
289.626130
 30
0.0
  0
SPLINE
  5
1cf
100
AcDbEntity
  8
0
 62
5
100
AcDbSpline
 70
8
 71
3
 72
8
 73
4
 74
0
 40
0
 40
0
 40
0
 40
0
 40
1
 40
1
 40
1
 40
1
 10
430.309761
 20
289.626130
 30
0.0
 10
430.203927
 20
289.626130
 30
0.0
 10
430.080446
 20
289.643770
 30
0.0
 10
430.080446
 20
289.784880
 30
0.0
  0
LWPOLYLINE
  5
1d0
100
AcDbEntity
  8
0
 62
5
100
AcDbPolyline
 90
2
 70
0
 10
428.934007
 20
282.799880
 30
0.0
 10
428.933927
 20
281.318214
 30
0.0
  0
SPLINE
  5
1d1
100
AcDbEntity
  8
0
 62
5
100
AcDbSpline
 70
8
 71
3
 72
8
 73
4
 74
0
 40
0
 40
0
 40
0
 40
0
 40
1
 40
1
 40
1
 40
1
 10
434.825034
 20
281.565158
 30
0.0
 10
434.825034
 20
281.053630
 30
0.0
 10
435.812803
 20
281.124186
 30
0.0
 10
435.848099
 20
281.900297
 30
0.0
  0
LWPOLYLINE
  5
1d2
100
AcDbEntity
  8
0
 62
5
100
AcDbPolyline
 90
1
 70
1
 10
430.080446
 20
289.784880
 30
0.0
  0
SPLINE
  5
1d3
100
AcDbEntity
  8
0
 62
5
100
AcDbSpline
 70
8
 71
3
 72
8
 73
4
 74
0
 40
0
 40
0
 40
0
 40
0
 40
1
 40
1
 40
1
 40
1
 10
436.377265
 20
293.965297
 30
0.0
 10
436.377265
 20
294.000575
 30
0.0
 10
436.394992
 20
294.229880
 30
0.0
 10
436.394992
 20
294.282797
 30
0.0
  0
SPLINE
  5
1d4
100
AcDbEntity
  8
0
 62
5
100
AcDbSpline
 70
8
 71
3
 72
8
 73
4
 74
0
 40
0
 40
0
 40
0
 40
0
 40
1
 40
1
 40
1
 40
1
 10
436.394992
 20
294.282797
 30
0.0
 10
436.394992
 20
294.794324
 30
0.0
 10
436.394992
 20
295.023630
 30
0.0
 10
435.883473
 20
295.023630
 30
0.0
  0
SPLINE
  5
1d5
100
AcDbEntity
  8
0
 62
5
100
AcDbSpline
 70
8
 71
3
 72
8
 73
4
 74
0
 40
0
 40
0
 40
0
 40
0
 40
1
 40
1
 40
1
 40
1
 10
435.883473
 20
295.023630
 30
0.0
 10
435.513057
 20
295.023630
 30
0.0
 10
435.424871
 20
295.005990
 30
0.0
 10
435.301390
 20
294.653213
 30
0.0
  0
LWPOLYLINE
  5
1d6
100
AcDbEntity
  8
0
 62
5
100
AcDbPolyline
 90
2
 70
0
 10
435.848099
 20
281.900297
 30
0.0
 10
436.377265
 20
293.965297
 30
0.0
  0
SPLINE
  5
1d7
100
AcDbEntity
  8
0
 62
5
100
AcDbSpline
 70
8
 71
3
 72
8
 73
4
 74
0
 40
0
 40
0
 40
0
 40
0
 40
1
 40
1
 40
1
 40
1
 10
440.318710
 20
281.935575
 30
0.0
 10
440.389275
 20
281.706269
 30
0.0
 10
440.583294
 20
281.706269
 30
0.0
 10
440.777339
 20
281.706269
 30
0.0
  0
SPLINE
  5
1d8
100
AcDbEntity
  8
0
 62
5
100
AcDbSpline
 70
8
 71
3
 72
8
 73
4
 74
0
 40
0
 40
0
 40
0
 40
0
 40
1
 40
1
 40
1
 40
1
 10
440.777339
 20
281.706269
 30
0.0
 10
441.024275
 20
281.706269
 30
0.0
 10
441.200672
 20
281.723909
 30
0.0
 10
441.324127
 20
282.041408
 30
0.0
  0
LWPOLYLINE
  5
1d9
100
AcDbEntity
  8
0
 62
5
100
AcDbPolyline
 90
2
 70
0
 10
435.301390
 20
294.653213
 30
0.0
 10
434.825034
 20
281.565158
 30
0.0
  0
SPLINE
  5
1da
100
AcDbEntity
  8
0
 62
5
100
AcDbSpline
 70
8
 71
3
 72
8
 73
4
 74
0
 40
0
 40
0
 40
0
 40
0
 40
1
 40
1
 40
1
 40
1
 10
442.012044
 20
286.574602
 30
0.0
 10
442.505941
 20
289.537936
 30
0.0
 10
442.946922
 20
292.571825
 30
0.0
 10
443.705377
 20
295.482241
 30
0.0
  0
SPLINE
  5
1db
100
AcDbEntity
  8
0
 62
5
100
AcDbSpline
 70
8
 71
3
 72
8
 73
4
 74
0
 40
0
 40
0
 40
0
 40
0
 40
1
 40
1
 40
1
 40
1
 10
443.705377
 20
295.482241
 30
0.0
 10
443.581922
 20
295.799741
 30
0.0
 10
443.405525
 20
295.835019
 30
0.0
 10
443.140941
 20
295.835019
 30
0.0
  0
SPLINE
  5
1dc
100
AcDbEntity
  8
0
 62
5
100
AcDbSpline
 70
8
 71
3
 72
8
 73
4
 74
0
 40
0
 40
0
 40
0
 40
0
 40
1
 40
1
 40
1
 40
1
 10
443.140941
 20
295.835019
 30
0.0
 10
442.823441
 20
295.835019
 30
0.0
 10
442.576506
 20
295.746824
 30
0.0
 10
442.576506
 20
295.147102
 30
0.0
  0
SPLINE
  5
1dd
100
AcDbEntity
  8
0
 62
5
100
AcDbSpline
 70
8
 71
3
 72
8
 73
4
 74
0
 40
0
 40
0
 40
0
 40
0
 40
1
 40
1
 40
1
 40
1
 10
442.576506
 20
295.147102
 30
0.0
 10
442.012044
 20
291.919186
 30
0.0
 10
441.394691
 20
287.844602
 30
0.0
 10
440.812608
 20
284.616686
 30
0.0
  0
LWPOLYLINE
  5
1de
100
AcDbEntity
  8
0
 62
5
100
AcDbPolyline
 90
2
 70
0
 10
441.324127
 20
282.041408
 30
0.0
 10
442.012044
 20
286.574602
 30
0.0
  0
SPLINE
  5
1df
100
AcDbEntity
  8
0
 62
5
100
AcDbSpline
 70
8
 71
3
 72
8
 73
4
 74
0
 40
0
 40
0
 40
0
 40
0
 40
1
 40
1
 40
1
 40
1
 10
439.313294
 20
295.482241
 30
0.0
 10
439.295566
 20
295.552797
 30
0.0
 10
439.048710
 20
295.782102
 30
0.0
 10
438.978172
 20
295.817380
 30
0.0
  0
SPLINE
  5
1e0
100
AcDbEntity
  8
0
 62
5
100
AcDbSpline
 70
8
 71
3
 72
8
 73
4
 74
0
 40
0
 40
0
 40
0
 40
0
 40
1
 40
1
 40
1
 40
1
 10
438.978172
 20
295.817380
 30
0.0
 10
438.837044
 20
295.958491
 30
0.0
 10
438.272608
 20
295.746824
 30
0.0
 10
438.166775
 20
295.605713
 30
0.0
  0
SPLINE
  5
1e1
100
AcDbEntity
  8
0
 62
5
100
AcDbSpline
 70
8
 71
3
 72
8
 73
4
 74
0
 40
0
 40
0
 40
0
 40
0
 40
1
 40
1
 40
1
 40
1
 10
438.166775
 20
295.605713
 30
0.0
 10
439.013441
 20
291.107797
 30
0.0
 10
439.383858
 20
286.345297
 30
0.0
 10
440.318710
 20
281.935575
 30
0.0
  0
LWPOLYLINE
  5
1e2
100
AcDbEntity
  8
0
 62
5
100
AcDbPolyline
 90
2
 70
0
 10
440.812608
 20
284.616686
 30
0.0
 10
439.313294
 20
295.482241
 30
0.0
  0
SPLINE
  5
1e3
100
AcDbEntity
  8
0
 62
5
100
AcDbSpline
 70
8
 71
3
 72
8
 73
4
 74
0
 40
0
 40
0
 40
0
 40
0
 40
1
 40
1
 40
1
 40
1
 10
445.492135
 20
281.794464
 30
0.0
 10
445.492135
 20
281.459325
 30
0.0
 10
449.443263
 20
281.388769
 30
0.0
 10
449.407968
 20
281.988491
 30
0.0
  0
SPLINE
  5
1e4
100
AcDbEntity
  8
0
 62
5
100
AcDbSpline
 70
8
 71
3
 72
8
 73
4
 74
0
 40
0
 40
0
 40
0
 40
0
 40
1
 40
1
 40
1
 40
1
 10
449.407968
 20
281.988491
 30
0.0
 10
449.355051
 20
282.799880
 30
0.0
 10
448.490763
 20
282.394186
 30
0.0
 10
447.308949
 20
282.394186
 30
0.0
  0
SPLINE
  5
1e5
100
AcDbEntity
  8
0
 62
5
100
AcDbSpline
 70
8
 71
3
 72
8
 73
4
 74
0
 40
0
 40
0
 40
0
 40
0
 40
1
 40
1
 40
1
 40
1
 10
447.308949
 20
282.394186
 30
0.0
 10
447.150199
 20
282.394186
 30
0.0
 10
446.550468
 20
282.394186
 30
0.0
 10
446.391718
 20
282.411826
 30
0.0
  0
LWPOLYLINE
  5
1e6
100
AcDbEntity
  8
0
 62
5
100
AcDbPolyline
 90
1
 70
1
 10
440.318710
 20
281.935575
 30
0.0
  0
SPLINE
  5
1e7
100
AcDbEntity
  8
0
 62
5
100
AcDbSpline
 70
8
 71
3
 72
8
 73
4
 74
0
 40
0
 40
0
 40
0
 40
0
 40
1
 40
1
 40
1
 40
1
 10
448.208532
 20
287.280159
 30
0.0
 10
448.914097
 20
287.385993
 30
0.0
 10
449.231597
 20
288.197381
 30
0.0
 10
448.402551
 20
288.197381
 30
0.0
  0
LWPOLYLINE
  5
1e8
100
AcDbEntity
  8
0
 62
5
100
AcDbPolyline
 90
3
 70
0
 10
446.391718
 20
282.411826
 30
0.0
 10
446.444635
 20
287.015576
 30
0.0
 10
448.208532
 20
287.280159
 30
0.0
  0
SPLINE
  5
1e9
100
AcDbEntity
  8
0
 62
5
100
AcDbSpline
 70
8
 71
3
 72
8
 73
4
 74
0
 40
0
 40
0
 40
0
 40
0
 40
1
 40
1
 40
1
 40
1
 10
448.437847
 20
293.771270
 30
0.0
 10
448.720051
 20
293.771270
 30
0.0
 10
449.196301
 20
293.930020
 30
0.0
 10
449.196301
 20
294.282798
 30
0.0
  0
SPLINE
  5
1ea
100
AcDbEntity
  8
0
 62
5
100
AcDbSpline
 70
8
 71
3
 72
8
 73
4
 74
0
 40
0
 40
0
 40
0
 40
0
 40
1
 40
1
 40
1
 40
1
 10
449.196301
 20
294.282798
 30
0.0
 10
449.196301
 20
294.318076
 30
0.0
 10
449.196301
 20
294.335714
 30
0.0
 10
449.178574
 20
294.370992
 30
0.0
  0
SPLINE
  5
1eb
100
AcDbEntity
  8
0
 62
5
100
AcDbSpline
 70
8
 71
3
 72
8
 73
4
 74
0
 40
0
 40
0
 40
0
 40
0
 40
1
 40
1
 40
1
 40
1
 10
449.178574
 20
294.370992
 30
0.0
 10
449.160847
 20
294.459187
 30
0.0
 10
448.808158
 20
294.723770
 30
0.0
 10
448.702324
 20
294.723770
 30
0.0
  0
LWPOLYLINE
  5
1ec
100
AcDbEntity
  8
0
 62
5
100
AcDbPolyline
 90
5
 70
0
 10
448.402551
 20
288.197381
 30
0.0
 10
448.314366
 20
288.197381
 30
0.0
 10
446.409366
 20
287.915159
 30
0.0
 10
446.321180
 20
293.771270
 30
0.0
 10
448.437847
 20
293.771270
 30
0.0
  0
SPLINE
  5
1ed
100
AcDbEntity
  8
0
 62
5
100
AcDbSpline
 70
8
 71
3
 72
8
 73
4
 74
0
 40
0
 40
0
 40
0
 40
0
 40
1
 40
1
 40
1
 40
1
 10
445.915362
 20
294.723770
 30
0.0
 10
445.597862
 20
294.723770
 30
0.0
 10
445.298010
 20
294.423909
 30
0.0
 10
445.298010
 20
294.106409
 30
0.0
  0
LWPOLYLINE
  5
1ee
100
AcDbEntity
  8
0
 62
5
100
AcDbPolyline
 90
2
 70
0
 10
448.702324
 20
294.723770
 30
0.0
 10
445.915362
 20
294.723770
 30
0.0
  0
SPLINE
  5
1ef
100
AcDbEntity
  8
0
 62
5
100
AcDbSpline
 70
8
 71
3
 72
8
 73
4
 74
0
 40
0
 40
0
 40
0
 40
0
 40
1
 40
1
 40
1
 40
1
 10
446.197699
 20
296.910991
 30
0.0
 10
446.197699
 20
296.681686
 30
0.0
 10
446.391718
 20
296.505297
 30
0.0
 10
446.621032
 20
296.505297
 30
0.0
  0
SPLINE
  5
1f0
100
AcDbEntity
  8
0
 62
5
100
AcDbSpline
 70
8
 71
3
 72
8
 73
4
 74
0
 40
0
 40
0
 40
0
 40
0
 40
1
 40
1
 40
1
 40
1
 10
446.621032
 20
296.505297
 30
0.0
 10
446.726866
 20
296.505297
 30
0.0
 10
446.762135
 20
296.505297
 30
0.0
 10
446.867968
 20
296.593491
 30
0.0
  0
LWPOLYLINE
  5
1f1
100
AcDbEntity
  8
0
 62
5
100
AcDbPolyline
 90
2
 70
0
 10
445.298010
 20
294.106409
 30
0.0
 10
445.492135
 20
281.794464
 30
0.0
  0
SPLINE
  5
1f2
100
AcDbEntity
  8
0
 62
5
100
AcDbSpline
 70
8
 71
3
 72
8
 73
4
 74
0
 40
0
 40
0
 40
0
 40
0
 40
1
 40
1
 40
1
 40
1
 10
448.420199
 20
297.651824
 30
0.0
 10
448.526032
 20
297.722380
 30
0.0
 10
448.508385
 20
297.740019
 30
0.0
 10
448.508385
 20
297.863491
 30
0.0
  0
SPLINE
  5
1f3
100
AcDbEntity
  8
0
 62
5
100
AcDbSpline
 70
8
 71
3
 72
8
 73
4
 74
0
 40
0
 40
0
 40
0
 40
0
 40
1
 40
1
 40
1
 40
1
 10
448.508385
 20
297.863491
 30
0.0
 10
448.508385
 20
298.092797
 30
0.0
 10
448.243801
 20
298.304463
 30
0.0
 10
448.014513
 20
298.304463
 30
0.0
  0
SPLINE
  5
1f4
100
AcDbEntity
  8
0
 62
5
100
AcDbSpline
 70
8
 71
3
 72
8
 73
4
 74
0
 40
0
 40
0
 40
0
 40
0
 40
1
 40
1
 40
1
 40
1
 10
448.014513
 20
298.304463
 30
0.0
 10
448.014513
 20
298.304463
 30
0.0
 10
447.891032
 20
298.251547
 30
0.0
 10
447.855763
 20
298.233908
 30
0.0
  0
LWPOLYLINE
  5
1f5
100
AcDbEntity
  8
0
 62
5
100
AcDbPolyline
 90
3
 70
0
 10
446.867968
 20
296.593491
 30
0.0
 10
447.520616
 20
297.087380
 30
0.0
 10
448.420199
 20
297.651824
 30
0.0
  0
SPLINE
  5
1f6
100
AcDbEntity
  8
0
 62
5
100
AcDbSpline
 70
8
 71
3
 72
8
 73
4
 74
0
 40
0
 40
0
 40
0
 40
0
 40
1
 40
1
 40
1
 40
1
 10
446.709218
 20
297.493074
 30
0.0
 10
446.497551
 20
297.351963
 30
0.0
 10
446.197699
 20
297.193213
 30
0.0
 10
446.197699
 20
296.910991
 30
0.0
  0
LWPOLYLINE
  5
1f7
100
AcDbEntity
  8
0
 62
5
100
AcDbPolyline
 90
2
 70
0
 10
447.855763
 20
298.233908
 30
0.0
 10
446.709218
 20
297.493074
 30
0.0
  0
SPLINE
  5
1f8
100
AcDbEntity
  8
0
 62
5
100
AcDbSpline
 70
8
 71
3
 72
8
 73
4
 74
0
 40
0
 40
0
 40
0
 40
0
 40
1
 40
1
 40
1
 40
1
 10
451.383268
 20
281.794464
 30
0.0
 10
451.383268
 20
281.459325
 30
0.0
 10
455.334370
 20
281.388769
 30
0.0
 10
455.299101
 20
281.988491
 30
0.0
  0
SPLINE
  5
1f9
100
AcDbEntity
  8
0
 62
5
100
AcDbSpline
 70
8
 71
3
 72
8
 73
4
 74
0
 40
0
 40
0
 40
0
 40
0
 40
1
 40
1
 40
1
 40
1
 10
455.299101
 20
281.988491
 30
0.0
 10
455.246184
 20
282.799880
 30
0.0
 10
454.381870
 20
282.394186
 30
0.0
 10
453.200056
 20
282.394186
 30
0.0
  0
SPLINE
  5
1fa
100
AcDbEntity
  8
0
 62
5
100
AcDbSpline
 70
8
 71
3
 72
8
 73
4
 74
0
 40
0
 40
0
 40
0
 40
0
 40
1
 40
1
 40
1
 40
1
 10
453.200056
 20
282.394186
 30
0.0
 10
453.041306
 20
282.394186
 30
0.0
 10
452.441601
 20
282.394186
 30
0.0
 10
452.282851
 20
282.411826
 30
0.0
  0
LWPOLYLINE
  5
1fb
100
AcDbEntity
  8
0
 62
5
100
AcDbPolyline
 90
1
 70
1
 10
446.197699
 20
296.910991
 30
0.0
  0
SPLINE
  5
1fc
100
AcDbEntity
  8
0
 62
5
100
AcDbSpline
 70
8
 71
3
 72
8
 73
4
 74
0
 40
0
 40
0
 40
0
 40
0
 40
1
 40
1
 40
1
 40
1
 10
454.099639
 20
287.280159
 30
0.0
 10
454.805203
 20
287.385993
 30
0.0
 10
455.122703
 20
288.197381
 30
0.0
 10
454.293684
 20
288.197381
 30
0.0
  0
LWPOLYLINE
  5
1fd
100
AcDbEntity
  8
0
 62
5
100
AcDbPolyline
 90
3
 70
0
 10
452.282851
 20
282.411826
 30
0.0
 10
452.335768
 20
287.015576
 30
0.0
 10
454.099639
 20
287.280159
 30
0.0
  0
SPLINE
  5
1fe
100
AcDbEntity
  8
0
 62
5
100
AcDbSpline
 70
8
 71
3
 72
8
 73
4
 74
0
 40
0
 40
0
 40
0
 40
0
 40
1
 40
1
 40
1
 40
1
 10
454.328953
 20
293.771270
 30
0.0
 10
454.611184
 20
293.771270
 30
0.0
 10
455.087434
 20
293.930020
 30
0.0
 10
455.087434
 20
294.282798
 30
0.0
  0
SPLINE
  5
1ff
100
AcDbEntity
  8
0
 62
5
100
AcDbSpline
 70
8
 71
3
 72
8
 73
4
 74
0
 40
0
 40
0
 40
0
 40
0
 40
1
 40
1
 40
1
 40
1
 10
455.087434
 20
294.282798
 30
0.0
 10
455.087434
 20
294.318076
 30
0.0
 10
455.087434
 20
294.335714
 30
0.0
 10
455.069707
 20
294.370992
 30
0.0
  0
SPLINE
  5
200
100
AcDbEntity
  8
0
 62
5
100
AcDbSpline
 70
8
 71
3
 72
8
 73
4
 74
0
 40
0
 40
0
 40
0
 40
0
 40
1
 40
1
 40
1
 40
1
 10
455.069707
 20
294.370992
 30
0.0
 10
455.051980
 20
294.459187
 30
0.0
 10
454.699291
 20
294.723770
 30
0.0
 10
454.593457
 20
294.723770
 30
0.0
  0
LWPOLYLINE
  5
201
100
AcDbEntity
  8
0
 62
5
100
AcDbPolyline
 90
5
 70
0
 10
454.293684
 20
288.197381
 30
0.0
 10
454.205472
 20
288.197381
 30
0.0
 10
452.300472
 20
287.915159
 30
0.0
 10
452.212287
 20
293.771270
 30
0.0
 10
454.328953
 20
293.771270
 30
0.0
  0
SPLINE
  5
202
100
AcDbEntity
  8
0
 62
5
100
AcDbSpline
 70
8
 71
3
 72
8
 73
4
 74
0
 40
0
 40
0
 40
0
 40
0
 40
1
 40
1
 40
1
 40
1
 10
451.806522
 20
294.723770
 30
0.0
 10
451.489022
 20
294.723770
 30
0.0
 10
451.189143
 20
294.423909
 30
0.0
 10
451.189143
 20
294.106409
 30
0.0
  0
LWPOLYLINE
  5
203
100
AcDbEntity
  8
0
 62
5
100
AcDbPolyline
 90
2
 70
0
 10
454.593457
 20
294.723770
 30
0.0
 10
451.806522
 20
294.723770
 30
0.0
  0
LWPOLYLINE
  5
204
100
AcDbEntity
  8
0
 62
5
100
AcDbPolyline
 90
2
 70
0
 10
451.189143
 20
294.106409
 30
0.0
 10
451.383268
 20
281.794464
 30
0.0
  0
LWPOLYLINE
  5
205
100
AcDbEntity
  8
0
 62
1
100
AcDbPolyline
 90
54
 70
1
 10
0.141111
 20
32.723213
 30
0.0
 10
0.141111
 20
43.014592
 30
0.0
 10
6.141119
 20
43.014592
 30
0.0
 10
6.141119
 20
53.205972
 30
0.0
 10
0.141111
 20
53.205972
 30
0.0
 10
0.141111
 20
63.497364
 30
0.0
 10
6.141119
 20
63.497364
 30
0.0
 10
6.141119
 20
73.688743
 30
0.0
 10
0.141111
 20
73.688743
 30
0.0
 10
0.141111
 20
83.980109
 30
0.0
 10
6.141119
 20
83.980109
 30
0.0
 10
6.141119
 20
94.171488
 30
0.0
 10
0.141111
 20
94.171488
 30
0.0
 10
0.141111
 20
104.462883
 30
0.0
 10
6.141119
 20
104.462883
 30
0.0
 10
6.141119
 20
114.654265
 30
0.0
 10
0.141111
 20
114.654265
 30
0.0
 10
0.141111
 20
124.945631
 30
0.0
 10
6.141119
 20
124.945631
 30
0.0
 10
6.141119
 20
135.137011
 30
0.0
 10
0.141111
 20
135.137011
 30
0.0
 10
0.141111
 20
145.428376
 30
0.0
 10
6.141119
 20
145.428376
 30
0.0
 10
6.141119
 20
155.619756
 30
0.0
 10
0.141111
 20
155.619756
 30
0.0
 10
0.141111
 20
165.911148
 30
0.0
 10
6.141119
 20
165.911148
 30
0.0
 10
6.141119
 20
176.102527
 30
0.0
 10
0.141111
 20
176.102527
 30
0.0
 10
0.141111
 20
186.393893
 30
0.0
 10
6.141119
 20
186.393893
 30
0.0
 10
6.141119
 20
196.585273
 30
0.0
 10
0.141111
 20
196.585273
 30
0.0
 10
0.141111
 20
206.876665
 30
0.0
 10
6.141119
 20
206.876665
 30
0.0
 10
6.141119
 20
217.068044
 30
0.0
 10
0.141111
 20
217.068044
 30
0.0
 10
0.141111
 20
227.359410
 30
0.0
 10
6.141119
 20
227.359410
 30
0.0
 10
6.141119
 20
237.550766
 30
0.0
 10
0.141111
 20
237.550766
 30
0.0
 10
0.141111
 20
247.842158
 30
0.0
 10
6.141119
 20
247.842158
 30
0.0
 10
6.141119
 20
258.033537
 30
0.0
 10
0.141111
 20
258.033537
 30
0.0
 10
0.141111
 20
268.324903
 30
0.0
 10
6.141119
 20
268.324903
 30
0.0
 10
6.141119
 20
278.541285
 30
0.0
 10
17.499444
 20
278.541285
 30
0.0
 10
17.499444
 20
272.541277
 30
0.0
 10
28.782783
 20
272.541277
 30
0.0
 10
28.782783
 20
278.541285
 30
0.0
 10
40.141107
 20
278.541285
 30
0.0
 10
40.141107
 20
32.747449
 30
0.0
  0
LWPOLYLINE
  5
206
100
AcDbEntity
  8
0
 62
1
100
AcDbPolyline
 90
54
 70
0
 10
40.141107
 20
32.747555
 30
0.0
 10
51.499431
 20
32.747555
 30
0.0
 10
51.499431
 20
38.747538
 30
0.0
 10
62.782773
 20
38.747538
 30
0.0
 10
62.782773
 20
32.747555
 30
0.0
 10
74.141097
 20
32.747555
 30
0.0
 10
74.141097
 20
42.963951
 30
0.0
 10
80.141106
 20
42.963951
 30
0.0
 10
80.141106
 20
53.255343
 30
0.0
 10
74.141097
 20
53.255343
 30
0.0
 10
74.141097
 20
63.446749
 30
0.0
 10
80.141106
 20
63.446749
 30
0.0
 10
80.141106
 20
73.738088
 30
0.0
 10
74.141097
 20
73.738088
 30
0.0
 10
74.141097
 20
83.929468
 30
0.0
 10
80.141106
 20
83.929468
 30
0.0
 10
80.141106
 20
94.220860
 30
0.0
 10
74.141097
 20
94.220860
 30
0.0
 10
74.141097
 20
104.412242
 30
0.0
 10
80.141106
 20
104.412242
 30
0.0
 10
80.141106
 20
114.703610
 30
0.0
 10
74.141097
 20
114.703610
 30
0.0
 10
74.141097
 20
124.894990
 30
0.0
 10
80.141106
 20
124.894990
 30
0.0
 10
80.141106
 20
135.186382
 30
0.0
 10
74.141097
 20
135.186382
 30
0.0
 10
74.141097
 20
145.377761
 30
0.0
 10
80.141106
 20
145.377761
 30
0.0
 10
80.141106
 20
155.669127
 30
0.0
 10
74.141097
 20
155.669127
 30
0.0
 10
74.141097
 20
165.860507
 30
0.0
 10
80.141106
 20
165.860507
 30
0.0
 10
80.141106
 20
176.151899
 30
0.0
 10
74.141097
 20
176.151899
 30
0.0
 10
74.141097
 20
186.343278
 30
0.0
 10
80.141106
 20
186.343278
 30
0.0
 10
80.141106
 20
196.634670
 30
0.0
 10
74.141097
 20
196.634670
 30
0.0
 10
74.141097
 20
206.826024
 30
0.0
 10
80.141106
 20
206.826024
 30
0.0
 10
80.141106
 20
217.117416
 30
0.0
 10
74.141097
 20
217.117416
 30
0.0
 10
74.141097
 20
227.308795
 30
0.0
 10
80.141106
 20
227.308795
 30
0.0
 10
80.141106
 20
237.600174
 30
0.0
 10
74.141097
 20
237.600174
 30
0.0
 10
74.141097
 20
247.791548
 30
0.0
 10
80.141106
 20
247.791548
 30
0.0
 10
80.141106
 20
258.082930
 30
0.0
 10
74.141097
 20
258.082930
 30
0.0
 10
74.141097
 20
268.274309
 30
0.0
 10
80.141106
 20
268.274309
 30
0.0
 10
80.141106
 20
278.565661
 30
0.0
 10
40.141107
 20
278.565661
 30
0.0
  0
LWPOLYLINE
  5
207
100
AcDbEntity
  8
0
 62
1
100
AcDbPolyline
 90
64
 70
0
 10
123.326771
 20
297.191084
 30
0.0
 10
134.635105
 20
297.191084
 30
0.0
 10
134.635105
 20
303.191067
 30
0.0
 10
146.018438
 20
303.191067
 30
0.0
 10
146.018438
 20
297.191084
 30
0.0
 10
157.326769
 20
297.191084
 30
0.0
 10
157.326769
 20
292.974711
 30
0.0
 10
163.326768
 20
292.974711
 30
0.0
 10
163.326768
 20
282.683319
 30
0.0
 10
157.326769
 20
282.683319
 30
0.0
 10
157.326769
 20
272.491948
 30
0.0
 10
163.326768
 20
272.491948
 30
0.0
 10
163.326768
 20
262.200574
 30
0.0
 10
157.326769
 20
262.200574
 30
0.0
 10
157.326769
 20
252.009195
 30
0.0
 10
163.326768
 20
252.009195
 30
0.0
 10
163.326768
 20
241.717818
 30
0.0
 10
157.326769
 20
241.717818
 30
0.0
 10
157.326769
 20
231.526439
 30
0.0
 10
163.326768
 20
231.526439
 30
0.0
 10
163.326768
 20
221.235057
 30
0.0
 10
157.326769
 20
221.235057
 30
0.0
 10
157.326769
 20
211.043680
 30
0.0
 10
163.326768
 20
211.043680
 30
0.0
 10
163.326768
 20
200.752301
 30
0.0
 10
157.326769
 20
200.752301
 30
0.0
 10
157.326769
 20
190.560922
 30
0.0
 10
163.326768
 20
190.560922
 30
0.0
 10
163.326768
 20
180.269543
 30
0.0
 10
157.326769
 20
180.269543
 30
0.0
 10
157.326769
 20
170.078166
 30
0.0
 10
163.326768
 20
170.078166
 30
0.0
 10
163.326768
 20
159.786787
 30
0.0
 10
157.326769
 20
159.786787
 30
0.0
 10
157.326769
 20
149.595408
 30
0.0
 10
163.326768
 20
149.595408
 30
0.0
 10
163.326768
 20
139.304031
 30
0.0
 10
157.326769
 20
139.304031
 30
0.0
 10
157.326769
 20
129.112652
 30
0.0
 10
163.326768
 20
129.112652
 30
0.0
 10
163.326768
 20
118.821270
 30
0.0
 10
157.326769
 20
118.821270
 30
0.0
 10
157.326769
 20
108.629893
 30
0.0
 10
163.326768
 20
108.629893
 30
0.0
 10
163.326768
 20
98.338515
 30
0.0
 10
157.326769
 20
98.338515
 30
0.0
 10
157.326769
 20
88.147135
 30
0.0
 10
163.326768
 20
88.147135
 30
0.0
 10
163.326768
 20
77.855759
 30
0.0
 10
157.326769
 20
77.855759
 30
0.0
 10
157.326769
 20
67.664379
 30
0.0
 10
163.326768
 20
67.664379
 30
0.0
 10
163.326768
 20
57.373000
 30
0.0
 10
157.326769
 20
57.373000
 30
0.0
 10
157.326769
 20
47.181623
 30
0.0
 10
163.326768
 20
47.181623
 30
0.0
 10
163.326768
 20
36.890242
 30
0.0
 10
157.326769
 20
36.890242
 30
0.0
 10
157.326769
 20
26.698889
 30
0.0
 10
163.326768
 20
26.698889
 30
0.0
 10
163.326768
 20
16.407497
 30
0.0
 10
157.326769
 20
16.407497
 30
0.0
 10
157.326769
 20
6.240988
 30
0.0
 10
123.326771
 20
6.240988
 30
0.0
  0
LWPOLYLINE
  5
208
100
AcDbEntity
  8
0
 62
1
100
AcDbPolyline
 90
65
 70
1
 10
123.326771
 20
297.191084
 30
0.0
 10
123.326771
 20
279.141098
 30
0.0
 10
123.326771
 20
6.141134
 30
0.0
 10
112.018453
 20
6.141134
 30
0.0
 10
112.018453
 20
0.141125
 30
0.0
 10
100.635125
 20
0.141125
 30
0.0
 10
100.635125
 20
6.141134
 30
0.0
 10
89.326781
 20
6.141134
 30
0.0
 10
89.326781
 20
10.357508
 30
0.0
 10
83.326798
 20
10.357508
 30
0.0
 10
83.326798
 20
20.648900
 30
0.0
 10
89.326781
 20
20.648900
 30
0.0
 10
89.326781
 20
30.840253
 30
0.0
 10
83.326798
 20
30.840253
 30
0.0
 10
83.326798
 20
41.131642
 30
0.0
 10
89.326781
 20
41.131642
 30
0.0
 10
89.326781
 20
51.323022
 30
0.0
 10
83.326798
 20
51.323022
 30
0.0
 10
83.326798
 20
61.614388
 30
0.0
 10
89.326781
 20
61.614388
 30
0.0
 10
89.326781
 20
71.805767
 30
0.0
 10
83.326798
 20
71.805767
 30
0.0
 10
83.326798
 20
82.097159
 30
0.0
 10
89.326781
 20
82.097159
 30
0.0
 10
89.326781
 20
92.288539
 30
0.0
 10
83.326798
 20
92.288539
 30
0.0
 10
83.326798
 20
102.579904
 30
0.0
 10
89.326781
 20
102.579904
 30
0.0
 10
89.326781
 20
112.771281
 30
0.0
 10
83.326798
 20
112.771281
 30
0.0
 10
83.326798
 20
123.062673
 30
0.0
 10
89.326781
 20
123.062673
 30
0.0
 10
89.326781
 20
133.254053
 30
0.0
 10
83.326798
 20
133.254053
 30
0.0
 10
83.326798
 20
143.545419
 30
0.0
 10
89.326781
 20
143.545419
 30
0.0
 10
89.326781
 20
153.736798
 30
0.0
 10
83.326798
 20
153.736798
 30
0.0
 10
83.326798
 20
164.028190
 30
0.0
 10
89.326781
 20
164.028190
 30
0.0
 10
89.326781
 20
174.219570
 30
0.0
 10
83.326798
 20
174.219570
 30
0.0
 10
83.326798
 20
184.510936
 30
0.0
 10
89.326781
 20
184.510936
 30
0.0
 10
89.326781
 20
194.702315
 30
0.0
 10
83.326798
 20
194.702315
 30
0.0
 10
83.326798
 20
204.993707
 30
0.0
 10
89.326781
 20
204.993707
 30
0.0
 10
89.326781
 20
215.185087
 30
0.0
 10
83.326798
 20
215.185087
 30
0.0
 10
83.326798
 20
225.476452
 30
0.0
 10
89.326781
 20
225.476452
 30
0.0
 10
89.326781
 20
235.667832
 30
0.0
 10
83.326798
 20
235.667832
 30
0.0
 10
83.326798
 20
245.959224
 30
0.0
 10
89.326781
 20
245.959224
 30
0.0
 10
89.326781
 20
256.150577
 30
0.0
 10
83.326798
 20
256.150577
 30
0.0
 10
83.326798
 20
266.441972
 30
0.0
 10
89.326781
 20
266.441972
 30
0.0
 10
89.326781
 20
276.633352
 30
0.0
 10
83.326798
 20
276.633352
 30
0.0
 10
83.326798
 20
286.924716
 30
0.0
 10
89.326781
 20
286.924716
 30
0.0
 10
89.326781
 20
297.191084
 30
0.0
  0
LWPOLYLINE
  5
209
100
AcDbEntity
  8
0
 62
1
100
AcDbPolyline
 90
4
 70
1
 10
313.841421
 20
297.241106
 30
0.0
 10
313.841421
 20
292.241106
 30
0.0
 10
316.841426
 20
292.241106
 30
0.0
 10
316.841426
 20
297.241106
 30
0.0
  0
ENDSEC
  0
SECTION
  2
OBJECTS
  0
DICTIONARY
  5
C
330
0
100
AcDbDictionary
  3
ACAD_GROUP
350
D
  3
ACAD_MLINESTYLE
350
17
  0
DICTIONARY
  5
D
330
C
100
AcDbDictionary
  0
DICTIONARY
  5
1A
330
C
100
AcDbDictionary
  0
DICTIONARY
  5
17
330
C
100
AcDbDictionary
  3
STANDARD
350
18
  0
DICTIONARY
  5
19
330
C
100
AcDbDictionary
  0
ENDSEC
  0
EOF
